Jun 20, 2020 6:12:58 PM com.danaDeals.base.TestBase setIdUser
INFO: idUser  ===> 1155
Jun 20, 2020 6:12:58 PM com.danaDeals.base.TestBase checkRegisData
INFO: ***** Check Register Data Content *****
Jun 20, 2020 6:12:59 PM com.danaDeals.base.TestBase checkRegisData
INFO: Actual name: ZROMPHowal UjhWJBFtU
Jun 20, 2020 6:12:59 PM com.danaDeals.base.TestBase checkRegisData
INFO: Expect name: ZROMPHowal UjhWJBFtU
Jun 20, 2020 6:12:59 PM com.danaDeals.base.TestBase checkRegisData
INFO: Actual email: yzfokxjrkxgoypipiutkvzfjwcsmqlclcbxpzuzbbiisjjvdpx@hjyudqpkftwuusrygkg.qif
Jun 20, 2020 6:12:59 PM com.danaDeals.base.TestBase checkRegisData
INFO: Expect email: yzfokxjrkxgoypipiutkvzfjwcsmqlclcbxpzuzbbiisjjvdpx@hjyudqpkftwuusrygkg.qif
Jun 20, 2020 6:12:59 PM com.danaDeals.base.TestBase checkRegisData
INFO: Actual phone number: +6281337519359
Jun 20, 2020 6:12:59 PM com.danaDeals.base.TestBase checkRegisData
INFO: Expect phone number: +6281337519359081337519359
Jun 20, 2020 6:12:59 PM com.danaDeals.base.TestBase checkRegisData
INFO: Actual id role: 2
Jun 20, 2020 6:12:59 PM com.danaDeals.base.TestBase checkRegisData
INFO: Expect id role: 2
Jun 20, 2020 6:12:59 PM com.danaDeals.base.TestBase checkRegisData
INFO: Actual id user: 1155
Jun 20, 2020 6:12:59 PM com.danaDeals.base.TestBase checkRegisData
INFO: Expect id user: 1155
Jun 20, 2020 6:12:59 PM com.danaDeals.base.TestBase checkRegisData
INFO: Actual balance: 0.0
Jun 20, 2020 6:12:59 PM com.danaDeals.base.TestBase checkRegisData
INFO: Expect balance: 0.0
Jun 20, 2020 6:12:59 PM com.danaDeals.base.TestBase checkRegisData
INFO: Actual role name: User
Jun 20, 2020 6:12:59 PM com.danaDeals.base.TestBase checkRegisData
INFO: Expect role name: User
Jun 20, 2020 6:12:59 PM com.danaDeals.base.TestBase checkBody
INFO: ***** Check Message *****
Jun 20, 2020 6:12:59 PM com.danaDeals.base.TestBase checkBody
INFO: Expected result: Registration is successful.
Jun 20, 2020 6:12:59 PM com.danaDeals.base.TestBase checkBody
INFO: Actual result: Registration is successful.
Jun 20, 2020 6:12:59 PM com.danaDeals.base.TestBase checkPath
INFO: ***** Check Path *****
Jun 20, 2020 6:12:59 PM com.danaDeals.base.TestBase checkPath
INFO: Expected result: /api/auth/register
Jun 20, 2020 6:12:59 PM com.danaDeals.base.TestBase checkPath
INFO: Actual result:  /api/auth/register
Jun 20, 2020 6:12:59 PM com.danaDeals.base.TestBase checkTimestamp
INFO: timestamp ===> 2020/06/20 18:12
Jun 20, 2020 6:12:59 PM com.danaDeals.base.TestBase checkDevStatus
INFO: ***** Check Developer Status *****
Jun 20, 2020 6:12:59 PM com.danaDeals.base.TestBase checkDevStatus
INFO: Expected result: 001
Jun 20, 2020 6:12:59 PM com.danaDeals.base.TestBase checkDevStatus
INFO: dev status ===> 001
Jun 20, 2020 6:12:59 PM com.danaDeals.base.TestBase checkStatusCode
INFO: ***** Check Status Code *****
Jun 20, 2020 6:12:59 PM com.danaDeals.base.TestBase checkStatusCode
INFO: Expected result: 201
Jun 20, 2020 6:12:59 PM com.danaDeals.base.TestBase checkStatusCode
INFO: Actual result: 201
Jun 20, 2020 6:12:59 PM com.danaDeals.base.TestBase checkResponseTime
INFO: ***** Check Response Time *****
Jun 20, 2020 6:12:59 PM com.danaDeals.base.TestBase checkResponseTime
INFO: Response Time = 2427
Jun 20, 2020 6:13:01 PM com.danaDeals.base.TestBase setIdUser
INFO: idUser  ===> 1155
Jun 20, 2020 6:13:01 PM com.danaDeals.base.TestBase setToken
INFO: token  ===>eyJhbGciOiJIUzUxMiJ9.eyJzdWIiOiIzOWU2OGY3NC1mYTBjLTQzYTctYTlmNi03NDczNjFjOTgxZjUxMTU1IiwiZXhwIjoxNTkzMjU2MzgwLCJpYXQiOjE1OTI2NTE1ODB9.JtvBjIQ76vahBI22uJWZ_G72VtISpLg745icl0JCEbm5mRkCjzVMMUzVmUNi4kt6Tp2R4A3t7T-wzjPq2tVFpA
Jun 20, 2020 6:13:01 PM com.danaDeals.base.TestBase checkLoginData
INFO: ***** Check Login Data Content *****
Jun 20, 2020 6:13:01 PM com.danaDeals.base.TestBase checkLoginData
INFO: Actual name: ZROMPHowal UjhWJBFtU
Jun 20, 2020 6:13:01 PM com.danaDeals.base.TestBase checkLoginData
INFO: Expect name: ZROMPHowal UjhWJBFtU
Jun 20, 2020 6:13:01 PM com.danaDeals.base.TestBase checkLoginData
INFO: Actual email: yzfokxjrkxgoypipiutkvzfjwcsmqlclcbxpzuzbbiisjjvdpx@hjyudqpkftwuusrygkg.qif
Jun 20, 2020 6:13:01 PM com.danaDeals.base.TestBase checkLoginData
INFO: Expect email: yzfokxjrkxgoypipiutkvzfjwcsmqlclcbxpzuzbbiisjjvdpx@hjyudqpkftwuusrygkg.qif
Jun 20, 2020 6:13:01 PM com.danaDeals.base.TestBase checkLoginData
INFO: Actual phone number: +6281337519359
Jun 20, 2020 6:13:01 PM com.danaDeals.base.TestBase checkLoginData
INFO: Expect phone number: 081337519359
Jun 20, 2020 6:13:01 PM com.danaDeals.base.TestBase checkLoginData
INFO: Actual id role: 2
Jun 20, 2020 6:13:01 PM com.danaDeals.base.TestBase checkLoginData
INFO: Expect id role: 2
Jun 20, 2020 6:13:01 PM com.danaDeals.base.TestBase checkLoginData
INFO: Actual id user: 1155
Jun 20, 2020 6:13:01 PM com.danaDeals.base.TestBase checkLoginData
INFO: Expect id user: 1155
Jun 20, 2020 6:13:01 PM com.danaDeals.base.TestBase checkLoginData
INFO: Actual balance: 0.0
Jun 20, 2020 6:13:01 PM com.danaDeals.base.TestBase checkLoginData
INFO: Expect balance: 0.0
Jun 20, 2020 6:13:01 PM com.danaDeals.base.TestBase checkLoginData
INFO: Actual role name: User
Jun 20, 2020 6:13:01 PM com.danaDeals.base.TestBase checkLoginData
INFO: Expect role name: User
Jun 20, 2020 6:13:01 PM com.danaDeals.base.TestBase checkBody
INFO: ***** Check Message *****
Jun 20, 2020 6:13:01 PM com.danaDeals.base.TestBase checkBody
INFO: Expected result: You are logged in.
Jun 20, 2020 6:13:01 PM com.danaDeals.base.TestBase checkBody
INFO: Actual result: You are logged in.
Jun 20, 2020 6:13:01 PM com.danaDeals.base.TestBase checkPath
INFO: ***** Check Path *****
Jun 20, 2020 6:13:01 PM com.danaDeals.base.TestBase checkPath
INFO: Expected result: /api/auth/login
Jun 20, 2020 6:13:01 PM com.danaDeals.base.TestBase checkPath
INFO: Actual result:  /api/auth/login
Jun 20, 2020 6:13:01 PM com.danaDeals.base.TestBase checkTimestamp
INFO: timestamp ===> 2020/06/20 18:13
Jun 20, 2020 6:13:01 PM com.danaDeals.base.TestBase checkDevStatus
INFO: ***** Check Developer Status *****
Jun 20, 2020 6:13:01 PM com.danaDeals.base.TestBase checkDevStatus
INFO: Expected result: 010
Jun 20, 2020 6:13:01 PM com.danaDeals.base.TestBase checkDevStatus
INFO: dev status ===> 010
Jun 20, 2020 6:13:01 PM com.danaDeals.base.TestBase checkStatusCode
INFO: ***** Check Status Code *****
Jun 20, 2020 6:13:01 PM com.danaDeals.base.TestBase checkStatusCode
INFO: Expected result: 200
Jun 20, 2020 6:13:01 PM com.danaDeals.base.TestBase checkStatusCode
INFO: Actual result: 200
Jun 20, 2020 6:13:01 PM com.danaDeals.base.TestBase checkResponseTime
INFO: ***** Check Response Time *****
Jun 20, 2020 6:13:01 PM com.danaDeals.base.TestBase checkResponseTime
INFO: Response Time = 2310
Jun 20, 2020 6:13:03 PM com.danaDeals.base.TestBase checkBody
INFO: ***** Check Message *****
Jun 20, 2020 6:13:03 PM com.danaDeals.base.TestBase checkBody
INFO: Expected result: Your TOPUP is successful.
Jun 20, 2020 6:13:03 PM com.danaDeals.base.TestBase checkBody
INFO: Actual result: Your TOPUP is successful.
Jun 20, 2020 6:13:03 PM com.danaDeals.base.TestBase checkPath
INFO: ***** Check Path *****
Jun 20, 2020 6:13:03 PM com.danaDeals.base.TestBase checkPath
INFO: Expected result: /api/user/1155/transaction/topup
Jun 20, 2020 6:13:03 PM com.danaDeals.base.TestBase checkPath
INFO: Actual result:  /api/user/1155/transaction/topup
Jun 20, 2020 6:13:03 PM com.danaDeals.base.TestBase checkTimestamp
INFO: timestamp ===> 2020/06/20 18:13
Jun 20, 2020 6:13:03 PM com.danaDeals.base.TestBase checkDevStatus
INFO: ***** Check Developer Status *****
Jun 20, 2020 6:13:03 PM com.danaDeals.base.TestBase checkDevStatus
INFO: Expected result: 033
Jun 20, 2020 6:13:03 PM com.danaDeals.base.TestBase checkDevStatus
INFO: dev status ===> 033
Jun 20, 2020 6:13:03 PM com.danaDeals.base.TestBase checkStatusCode
INFO: ***** Check Status Code *****
Jun 20, 2020 6:13:03 PM com.danaDeals.base.TestBase checkStatusCode
INFO: Expected result: 201
Jun 20, 2020 6:13:03 PM com.danaDeals.base.TestBase checkStatusCode
INFO: Actual result: 201
Jun 20, 2020 6:13:03 PM com.danaDeals.base.TestBase checkResponseTime
INFO: ***** Check Response Time *****
Jun 20, 2020 6:13:03 PM com.danaDeals.base.TestBase checkResponseTime
INFO: Response Time = 2406
Jun 20, 2020 6:13:06 PM com.danaDeals.base.TestBase setIdTransaction
INFO: idTransaction  ===> 638
Jun 20, 2020 6:13:06 PM com.danaDeals.base.TestBase checkBody
INFO: ***** Check Message *****
Jun 20, 2020 6:13:06 PM com.danaDeals.base.TestBase checkBody
INFO: Expected result: A new transaction has been created!
Jun 20, 2020 6:13:06 PM com.danaDeals.base.TestBase checkBody
INFO: Actual result: A new transaction has been created!
Jun 20, 2020 6:13:06 PM com.danaDeals.base.TestBase checkPath
INFO: ***** Check Path *****
Jun 20, 2020 6:13:06 PM com.danaDeals.base.TestBase checkPath
INFO: Expected result: /api/user/1155/transaction/voucher
Jun 20, 2020 6:13:06 PM com.danaDeals.base.TestBase checkPath
INFO: Actual result:  /api/user/1155/transaction/voucher
Jun 20, 2020 6:13:06 PM com.danaDeals.base.TestBase checkTimestamp
INFO: timestamp ===> 2020/06/20 18:13
Jun 20, 2020 6:13:06 PM com.danaDeals.base.TestBase checkDevStatus
INFO: ***** Check Developer Status *****
Jun 20, 2020 6:13:06 PM com.danaDeals.base.TestBase checkDevStatus
INFO: Expected result: 052
Jun 20, 2020 6:13:06 PM com.danaDeals.base.TestBase checkDevStatus
INFO: dev status ===> 052
Jun 20, 2020 6:13:06 PM com.danaDeals.base.TestBase checkStatusCode
INFO: ***** Check Status Code *****
Jun 20, 2020 6:13:06 PM com.danaDeals.base.TestBase checkStatusCode
INFO: Expected result: 201
Jun 20, 2020 6:13:06 PM com.danaDeals.base.TestBase checkStatusCode
INFO: Actual result: 201
Jun 20, 2020 6:13:06 PM com.danaDeals.base.TestBase checkResponseTime
INFO: ***** Check Response Time *****
Jun 20, 2020 6:13:06 PM com.danaDeals.base.TestBase checkResponseTime
INFO: Response Time = 2545
Jun 20, 2020 6:13:08 PM com.danaDeals.base.TestBase checkBody
INFO: ***** Check Message *****
Jun 20, 2020 6:13:08 PM com.danaDeals.base.TestBase checkBody
INFO: Expected result: Your payment is successfull.
Jun 20, 2020 6:13:08 PM com.danaDeals.base.TestBase checkBody
INFO: Actual result: Your payment is successfull.
Jun 20, 2020 6:13:08 PM com.danaDeals.base.TestBase checkPath
INFO: ***** Check Path *****
Jun 20, 2020 6:13:08 PM com.danaDeals.base.TestBase checkPath
INFO: Expected result: /api/user/1155/transaction/voucher
Jun 20, 2020 6:13:08 PM com.danaDeals.base.TestBase checkPath
INFO: Actual result:  /api/user/1155/transaction/voucher
Jun 20, 2020 6:13:08 PM com.danaDeals.base.TestBase checkTimestamp
INFO: timestamp ===> 2020/06/20 18:13
Jun 20, 2020 6:13:08 PM com.danaDeals.base.TestBase checkDevStatus
INFO: ***** Check Developer Status *****
Jun 20, 2020 6:13:08 PM com.danaDeals.base.TestBase checkDevStatus
INFO: Expected result: 028
Jun 20, 2020 6:13:08 PM com.danaDeals.base.TestBase checkDevStatus
INFO: dev status ===> 028
Jun 20, 2020 6:13:08 PM com.danaDeals.base.TestBase checkStatusCode
INFO: ***** Check Status Code *****
Jun 20, 2020 6:13:08 PM com.danaDeals.base.TestBase checkStatusCode
INFO: Expected result: 200
Jun 20, 2020 6:13:08 PM com.danaDeals.base.TestBase checkStatusCode
INFO: Actual result: 200
Jun 20, 2020 6:13:08 PM com.danaDeals.base.TestBase checkResponseTime
INFO: ***** Check Response Time *****
Jun 20, 2020 6:13:08 PM com.danaDeals.base.TestBase checkResponseTime
INFO: Response Time = 2524
Jun 20, 2020 6:13:11 PM com.danaDeals.base.TestBase checkDataEquals
INFO: ***** Check Data Content *****
Jun 20, 2020 6:13:11 PM com.danaDeals.base.TestBase checkDataEquals
INFO: Expected result: Refund
Jun 20, 2020 6:13:11 PM com.danaDeals.base.TestBase checkDataEquals
INFO: Actual result: Refund
Jun 20, 2020 6:13:11 PM com.danaDeals.base.TestBase checkBody
INFO: ***** Check Message *****
Jun 20, 2020 6:13:11 PM com.danaDeals.base.TestBase checkBody
INFO: Expected result: Transaction history are successfully collected.
Jun 20, 2020 6:13:11 PM com.danaDeals.base.TestBase checkBody
INFO: Actual result: Transaction history are successfully collected.
Jun 20, 2020 6:13:11 PM com.danaDeals.base.TestBase checkPath
INFO: ***** Check Path *****
Jun 20, 2020 6:13:11 PM com.danaDeals.base.TestBase checkPath
INFO: Expected result: /api/user/1155/transaction/639
Jun 20, 2020 6:13:11 PM com.danaDeals.base.TestBase checkPath
INFO: Actual result:  /api/user/1155/transaction/639
Jun 20, 2020 6:13:11 PM com.danaDeals.base.TestBase checkTimestamp
INFO: timestamp ===> 2020/06/20 18:13
Jun 20, 2020 6:13:11 PM com.danaDeals.base.TestBase checkDevStatus
INFO: ***** Check Developer Status *****
Jun 20, 2020 6:13:11 PM com.danaDeals.base.TestBase checkDevStatus
INFO: Expected result: 039
Jun 20, 2020 6:13:11 PM com.danaDeals.base.TestBase checkDevStatus
INFO: dev status ===> 039
Jun 20, 2020 6:13:11 PM com.danaDeals.base.TestBase checkStatusCode
INFO: ***** Check Status Code *****
Jun 20, 2020 6:13:11 PM com.danaDeals.base.TestBase checkStatusCode
INFO: Expected result: 200
Jun 20, 2020 6:13:11 PM com.danaDeals.base.TestBase checkStatusCode
INFO: Actual result: 200
Jun 20, 2020 6:13:11 PM com.danaDeals.base.TestBase checkResponseTime
INFO: ***** Check Response Time *****
Jun 20, 2020 6:13:11 PM com.danaDeals.base.TestBase checkResponseTime
INFO: Response Time = 2332
Jun 20, 2020 6:13:13 PM com.danaDeals.base.TestBase checkBody
INFO: ***** Check Message *****
Jun 20, 2020 6:13:13 PM com.danaDeals.base.TestBase checkBody
INFO: Expected result: You are logged out.
Jun 20, 2020 6:13:13 PM com.danaDeals.base.TestBase checkBody
INFO: Actual result: You are logged out.
Jun 20, 2020 6:13:13 PM com.danaDeals.base.TestBase checkPath
INFO: ***** Check Path *****
Jun 20, 2020 6:13:13 PM com.danaDeals.base.TestBase checkPath
INFO: Expected result: /api/user/1155/logout
Jun 20, 2020 6:13:13 PM com.danaDeals.base.TestBase checkPath
INFO: Actual result:  /api/user/1155/logout
Jun 20, 2020 6:13:13 PM com.danaDeals.base.TestBase checkTimestamp
INFO: timestamp ===> 2020/06/20 18:13
Jun 20, 2020 6:13:13 PM com.danaDeals.base.TestBase checkDevStatus
INFO: ***** Check Developer Status *****
Jun 20, 2020 6:13:13 PM com.danaDeals.base.TestBase checkDevStatus
INFO: Expected result: 041
Jun 20, 2020 6:13:13 PM com.danaDeals.base.TestBase checkDevStatus
INFO: dev status ===> 041
Jun 20, 2020 6:13:13 PM com.danaDeals.base.TestBase checkStatusCode
INFO: ***** Check Status Code *****
Jun 20, 2020 6:13:13 PM com.danaDeals.base.TestBase checkStatusCode
INFO: Expected result: 200
Jun 20, 2020 6:13:13 PM com.danaDeals.base.TestBase checkStatusCode
INFO: Actual result: 200
Jun 20, 2020 6:13:13 PM com.danaDeals.base.TestBase checkResponseTime
INFO: ***** Check Response Time *****
Jun 20, 2020 6:13:13 PM com.danaDeals.base.TestBase checkResponseTime
INFO: Response Time = 2322
Jun 20, 2020 6:13:16 PM com.danaDeals.base.TestBase setIdUser
INFO: idUser  ===> 1156
Jun 20, 2020 6:13:16 PM com.danaDeals.base.TestBase checkRegisData
INFO: ***** Check Register Data Content *****
Jun 20, 2020 6:13:16 PM com.danaDeals.base.TestBase checkRegisData
INFO: Actual name: tOnTiMzKRy lVIVewWmB
Jun 20, 2020 6:13:16 PM com.danaDeals.base.TestBase checkRegisData
INFO: Expect name: tOnTiMzKRy lVIVewWmB
Jun 20, 2020 6:13:16 PM com.danaDeals.base.TestBase checkRegisData
INFO: Actual email: vordcktvulkrrbnsmkgiikcsbnyedhrljqdbjarytypaffpysq@nzmchjogldqjbwpomnq.inv
Jun 20, 2020 6:13:16 PM com.danaDeals.base.TestBase checkRegisData
INFO: Expect email: vordcktvulkrrbnsmkgiikcsbnyedhrljqdbjarytypaffpysq@nzmchjogldqjbwpomnq.inv
Jun 20, 2020 6:13:16 PM com.danaDeals.base.TestBase checkRegisData
INFO: Actual phone number: +6281437753722
Jun 20, 2020 6:13:16 PM com.danaDeals.base.TestBase checkRegisData
INFO: Expect phone number: +6281437753722081437753722
Jun 20, 2020 6:13:16 PM com.danaDeals.base.TestBase checkRegisData
INFO: Actual id role: 2
Jun 20, 2020 6:13:16 PM com.danaDeals.base.TestBase checkRegisData
INFO: Expect id role: 2
Jun 20, 2020 6:13:16 PM com.danaDeals.base.TestBase checkRegisData
INFO: Actual id user: 1156
Jun 20, 2020 6:13:16 PM com.danaDeals.base.TestBase checkRegisData
INFO: Expect id user: 1156
Jun 20, 2020 6:13:16 PM com.danaDeals.base.TestBase checkRegisData
INFO: Actual balance: 0.0
Jun 20, 2020 6:13:16 PM com.danaDeals.base.TestBase checkRegisData
INFO: Expect balance: 0.0
Jun 20, 2020 6:13:16 PM com.danaDeals.base.TestBase checkRegisData
INFO: Actual role name: User
Jun 20, 2020 6:13:16 PM com.danaDeals.base.TestBase checkRegisData
INFO: Expect role name: User
Jun 20, 2020 6:13:16 PM com.danaDeals.base.TestBase checkBody
INFO: ***** Check Message *****
Jun 20, 2020 6:13:16 PM com.danaDeals.base.TestBase checkBody
INFO: Expected result: Registration is successful.
Jun 20, 2020 6:13:16 PM com.danaDeals.base.TestBase checkBody
INFO: Actual result: Registration is successful.
Jun 20, 2020 6:13:16 PM com.danaDeals.base.TestBase checkPath
INFO: ***** Check Path *****
Jun 20, 2020 6:13:16 PM com.danaDeals.base.TestBase checkPath
INFO: Expected result: /api/auth/register
Jun 20, 2020 6:13:16 PM com.danaDeals.base.TestBase checkPath
INFO: Actual result:  /api/auth/register
Jun 20, 2020 6:13:16 PM com.danaDeals.base.TestBase checkTimestamp
INFO: timestamp ===> 2020/06/20 18:13
Jun 20, 2020 6:13:16 PM com.danaDeals.base.TestBase checkDevStatus
INFO: ***** Check Developer Status *****
Jun 20, 2020 6:13:16 PM com.danaDeals.base.TestBase checkDevStatus
INFO: Expected result: 001
Jun 20, 2020 6:13:16 PM com.danaDeals.base.TestBase checkDevStatus
INFO: dev status ===> 001
Jun 20, 2020 6:13:16 PM com.danaDeals.base.TestBase checkStatusCode
INFO: ***** Check Status Code *****
Jun 20, 2020 6:13:16 PM com.danaDeals.base.TestBase checkStatusCode
INFO: Expected result: 201
Jun 20, 2020 6:13:16 PM com.danaDeals.base.TestBase checkStatusCode
INFO: Actual result: 201
Jun 20, 2020 6:13:16 PM com.danaDeals.base.TestBase checkResponseTime
INFO: ***** Check Response Time *****
Jun 20, 2020 6:13:16 PM com.danaDeals.base.TestBase checkResponseTime
INFO: Response Time = 2517
Jun 20, 2020 6:13:18 PM com.danaDeals.base.TestBase setIdUser
INFO: idUser  ===> 1156
Jun 20, 2020 6:13:18 PM com.danaDeals.base.TestBase setToken
INFO: token  ===>eyJhbGciOiJIUzUxMiJ9.eyJzdWIiOiJlYTBjYmVlOS0wODQ0LTQzNzItOTdiOS1hYWNhMzI2NGQwOGExMTU2IiwiZXhwIjoxNTkzMjU2Mzk4LCJpYXQiOjE1OTI2NTE1OTh9.wtBWnaZTGtx-X2M4M331lXjSEP_0gpdFzeDTtYPiVs5W5E4aT8qNFpsIacw31e8HNKF4GW4RLTj3kzgi26hs4g
Jun 20, 2020 6:13:18 PM com.danaDeals.base.TestBase checkLoginData
INFO: ***** Check Login Data Content *****
Jun 20, 2020 6:13:18 PM com.danaDeals.base.TestBase checkLoginData
INFO: Actual name: tOnTiMzKRy lVIVewWmB
Jun 20, 2020 6:13:18 PM com.danaDeals.base.TestBase checkLoginData
INFO: Expect name: tOnTiMzKRy lVIVewWmB
Jun 20, 2020 6:13:18 PM com.danaDeals.base.TestBase checkLoginData
INFO: Actual email: vordcktvulkrrbnsmkgiikcsbnyedhrljqdbjarytypaffpysq@nzmchjogldqjbwpomnq.inv
Jun 20, 2020 6:13:18 PM com.danaDeals.base.TestBase checkLoginData
INFO: Expect email: vordcktvulkrrbnsmkgiikcsbnyedhrljqdbjarytypaffpysq@nzmchjogldqjbwpomnq.inv
Jun 20, 2020 6:13:18 PM com.danaDeals.base.TestBase checkLoginData
INFO: Actual phone number: +6281437753722
Jun 20, 2020 6:13:18 PM com.danaDeals.base.TestBase checkLoginData
INFO: Expect phone number: 081437753722
Jun 20, 2020 6:13:18 PM com.danaDeals.base.TestBase checkLoginData
INFO: Actual id role: 2
Jun 20, 2020 6:13:18 PM com.danaDeals.base.TestBase checkLoginData
INFO: Expect id role: 2
Jun 20, 2020 6:13:18 PM com.danaDeals.base.TestBase checkLoginData
INFO: Actual id user: 1156
Jun 20, 2020 6:13:18 PM com.danaDeals.base.TestBase checkLoginData
INFO: Expect id user: 1156
Jun 20, 2020 6:13:18 PM com.danaDeals.base.TestBase checkLoginData
INFO: Actual balance: 0.0
Jun 20, 2020 6:13:18 PM com.danaDeals.base.TestBase checkLoginData
INFO: Expect balance: 0.0
Jun 20, 2020 6:13:18 PM com.danaDeals.base.TestBase checkLoginData
INFO: Actual role name: User
Jun 20, 2020 6:13:18 PM com.danaDeals.base.TestBase checkLoginData
INFO: Expect role name: User
Jun 20, 2020 6:13:18 PM com.danaDeals.base.TestBase checkBody
INFO: ***** Check Message *****
Jun 20, 2020 6:13:18 PM com.danaDeals.base.TestBase checkBody
INFO: Expected result: You are logged in.
Jun 20, 2020 6:13:18 PM com.danaDeals.base.TestBase checkBody
INFO: Actual result: You are logged in.
Jun 20, 2020 6:13:18 PM com.danaDeals.base.TestBase checkPath
INFO: ***** Check Path *****
Jun 20, 2020 6:13:18 PM com.danaDeals.base.TestBase checkPath
INFO: Expected result: /api/auth/login
Jun 20, 2020 6:13:18 PM com.danaDeals.base.TestBase checkPath
INFO: Actual result:  /api/auth/login
Jun 20, 2020 6:13:18 PM com.danaDeals.base.TestBase checkTimestamp
INFO: timestamp ===> 2020/06/20 18:13
Jun 20, 2020 6:13:18 PM com.danaDeals.base.TestBase checkDevStatus
INFO: ***** Check Developer Status *****
Jun 20, 2020 6:13:18 PM com.danaDeals.base.TestBase checkDevStatus
INFO: Expected result: 010
Jun 20, 2020 6:13:18 PM com.danaDeals.base.TestBase checkDevStatus
INFO: dev status ===> 010
Jun 20, 2020 6:13:18 PM com.danaDeals.base.TestBase checkStatusCode
INFO: ***** Check Status Code *****
Jun 20, 2020 6:13:18 PM com.danaDeals.base.TestBase checkStatusCode
INFO: Expected result: 200
Jun 20, 2020 6:13:18 PM com.danaDeals.base.TestBase checkStatusCode
INFO: Actual result: 200
Jun 20, 2020 6:13:18 PM com.danaDeals.base.TestBase checkResponseTime
INFO: ***** Check Response Time *****
Jun 20, 2020 6:13:18 PM com.danaDeals.base.TestBase checkResponseTime
INFO: Response Time = 2515
Jun 20, 2020 6:13:21 PM com.danaDeals.base.TestBase checkBody
INFO: ***** Check Message *****
Jun 20, 2020 6:13:21 PM com.danaDeals.base.TestBase checkBody
INFO: Expected result: Your TOPUP is successful.
Jun 20, 2020 6:13:21 PM com.danaDeals.base.TestBase checkBody
INFO: Actual result: Your TOPUP is successful.
Jun 20, 2020 6:13:21 PM com.danaDeals.base.TestBase checkPath
INFO: ***** Check Path *****
Jun 20, 2020 6:13:21 PM com.danaDeals.base.TestBase checkPath
INFO: Expected result: /api/user/1156/transaction/topup
Jun 20, 2020 6:13:21 PM com.danaDeals.base.TestBase checkPath
INFO: Actual result:  /api/user/1156/transaction/topup
Jun 20, 2020 6:13:21 PM com.danaDeals.base.TestBase checkTimestamp
INFO: timestamp ===> 2020/06/20 18:13
Jun 20, 2020 6:13:21 PM com.danaDeals.base.TestBase checkDevStatus
INFO: ***** Check Developer Status *****
Jun 20, 2020 6:13:21 PM com.danaDeals.base.TestBase checkDevStatus
INFO: Expected result: 033
Jun 20, 2020 6:13:21 PM com.danaDeals.base.TestBase checkDevStatus
INFO: dev status ===> 033
Jun 20, 2020 6:13:21 PM com.danaDeals.base.TestBase checkStatusCode
INFO: ***** Check Status Code *****
Jun 20, 2020 6:13:21 PM com.danaDeals.base.TestBase checkStatusCode
INFO: Expected result: 201
Jun 20, 2020 6:13:21 PM com.danaDeals.base.TestBase checkStatusCode
INFO: Actual result: 201
Jun 20, 2020 6:13:21 PM com.danaDeals.base.TestBase checkResponseTime
INFO: ***** Check Response Time *****
Jun 20, 2020 6:13:21 PM com.danaDeals.base.TestBase checkResponseTime
INFO: Response Time = 2510
Jun 20, 2020 6:13:23 PM com.danaDeals.base.TestBase setIdTransaction
INFO: idTransaction  ===> 641
Jun 20, 2020 6:13:23 PM com.danaDeals.base.TestBase checkBody
INFO: ***** Check Message *****
Jun 20, 2020 6:13:23 PM com.danaDeals.base.TestBase checkBody
INFO: Expected result: A new transaction has been created!
Jun 20, 2020 6:13:23 PM com.danaDeals.base.TestBase checkBody
INFO: Actual result: A new transaction has been created!
Jun 20, 2020 6:13:23 PM com.danaDeals.base.TestBase checkPath
INFO: ***** Check Path *****
Jun 20, 2020 6:13:23 PM com.danaDeals.base.TestBase checkPath
INFO: Expected result: /api/user/1156/transaction/voucher
Jun 20, 2020 6:13:23 PM com.danaDeals.base.TestBase checkPath
INFO: Actual result:  /api/user/1156/transaction/voucher
Jun 20, 2020 6:13:23 PM com.danaDeals.base.TestBase checkTimestamp
INFO: timestamp ===> 2020/06/20 18:13
Jun 20, 2020 6:13:23 PM com.danaDeals.base.TestBase checkDevStatus
INFO: ***** Check Developer Status *****
Jun 20, 2020 6:13:23 PM com.danaDeals.base.TestBase checkDevStatus
INFO: Expected result: 052
Jun 20, 2020 6:13:23 PM com.danaDeals.base.TestBase checkDevStatus
INFO: dev status ===> 052
Jun 20, 2020 6:13:23 PM com.danaDeals.base.TestBase checkStatusCode
INFO: ***** Check Status Code *****
Jun 20, 2020 6:13:23 PM com.danaDeals.base.TestBase checkStatusCode
INFO: Expected result: 201
Jun 20, 2020 6:13:23 PM com.danaDeals.base.TestBase checkStatusCode
INFO: Actual result: 201
Jun 20, 2020 6:13:23 PM com.danaDeals.base.TestBase checkResponseTime
INFO: ***** Check Response Time *****
Jun 20, 2020 6:13:23 PM com.danaDeals.base.TestBase checkResponseTime
INFO: Response Time = 2444
Jun 20, 2020 6:13:26 PM com.danaDeals.base.TestBase checkBody
INFO: ***** Check Message *****
Jun 20, 2020 6:13:26 PM com.danaDeals.base.TestBase checkBody
INFO: Expected result: Your payment is successfull.
Jun 20, 2020 6:13:26 PM com.danaDeals.base.TestBase checkBody
INFO: Actual result: Your payment is successfull.
Jun 20, 2020 6:13:26 PM com.danaDeals.base.TestBase checkPath
INFO: ***** Check Path *****
Jun 20, 2020 6:13:26 PM com.danaDeals.base.TestBase checkPath
INFO: Expected result: /api/user/1156/transaction/voucher
Jun 20, 2020 6:13:26 PM com.danaDeals.base.TestBase checkPath
INFO: Actual result:  /api/user/1156/transaction/voucher
Jun 20, 2020 6:13:26 PM com.danaDeals.base.TestBase checkTimestamp
INFO: timestamp ===> 2020/06/20 18:13
Jun 20, 2020 6:13:26 PM com.danaDeals.base.TestBase checkDevStatus
INFO: ***** Check Developer Status *****
Jun 20, 2020 6:13:26 PM com.danaDeals.base.TestBase checkDevStatus
INFO: Expected result: 028
Jun 20, 2020 6:13:26 PM com.danaDeals.base.TestBase checkDevStatus
INFO: dev status ===> 028
Jun 20, 2020 6:13:26 PM com.danaDeals.base.TestBase checkStatusCode
INFO: ***** Check Status Code *****
Jun 20, 2020 6:13:26 PM com.danaDeals.base.TestBase checkStatusCode
INFO: Expected result: 200
Jun 20, 2020 6:13:26 PM com.danaDeals.base.TestBase checkStatusCode
INFO: Actual result: 200
Jun 20, 2020 6:13:26 PM com.danaDeals.base.TestBase checkResponseTime
INFO: ***** Check Response Time *****
Jun 20, 2020 6:13:26 PM com.danaDeals.base.TestBase checkResponseTime
INFO: Response Time = 2723
Jun 20, 2020 6:13:28 PM com.danaDeals.base.TestBase checkDataEquals
INFO: ***** Check Data Content *****
Jun 20, 2020 6:13:28 PM com.danaDeals.base.TestBase checkDataEquals
INFO: Expected result: Failed
Jun 20, 2020 6:13:28 PM com.danaDeals.base.TestBase checkDataEquals
INFO: Actual result: Failed
Jun 20, 2020 6:13:28 PM com.danaDeals.base.TestBase checkBody
INFO: ***** Check Message *****
Jun 20, 2020 6:13:28 PM com.danaDeals.base.TestBase checkBody
INFO: Expected result: Transaction history are successfully collected.
Jun 20, 2020 6:13:28 PM com.danaDeals.base.TestBase checkBody
INFO: Actual result: Transaction history are successfully collected.
Jun 20, 2020 6:13:28 PM com.danaDeals.base.TestBase checkPath
INFO: ***** Check Path *****
Jun 20, 2020 6:13:28 PM com.danaDeals.base.TestBase checkPath
INFO: Expected result: /api/user/1156/transaction/641
Jun 20, 2020 6:13:28 PM com.danaDeals.base.TestBase checkPath
INFO: Actual result:  /api/user/1156/transaction/641
Jun 20, 2020 6:13:28 PM com.danaDeals.base.TestBase checkTimestamp
INFO: timestamp ===> 2020/06/20 18:13
Jun 20, 2020 6:13:28 PM com.danaDeals.base.TestBase checkDevStatus
INFO: ***** Check Developer Status *****
Jun 20, 2020 6:13:28 PM com.danaDeals.base.TestBase checkDevStatus
INFO: Expected result: 039
Jun 20, 2020 6:13:28 PM com.danaDeals.base.TestBase checkDevStatus
INFO: dev status ===> 039
Jun 20, 2020 6:13:28 PM com.danaDeals.base.TestBase checkStatusCode
INFO: ***** Check Status Code *****
Jun 20, 2020 6:13:28 PM com.danaDeals.base.TestBase checkStatusCode
INFO: Expected result: 200
Jun 20, 2020 6:13:28 PM com.danaDeals.base.TestBase checkStatusCode
INFO: Actual result: 200
Jun 20, 2020 6:13:28 PM com.danaDeals.base.TestBase checkResponseTime
INFO: ***** Check Response Time *****
Jun 20, 2020 6:13:28 PM com.danaDeals.base.TestBase checkResponseTime
INFO: Response Time = 2267
Jun 20, 2020 6:13:31 PM com.danaDeals.base.TestBase checkBody
INFO: ***** Check Message *****
Jun 20, 2020 6:13:31 PM com.danaDeals.base.TestBase checkBody
INFO: Expected result: You are logged out.
Jun 20, 2020 6:13:31 PM com.danaDeals.base.TestBase checkBody
INFO: Actual result: You are logged out.
Jun 20, 2020 6:13:31 PM com.danaDeals.base.TestBase checkPath
INFO: ***** Check Path *****
Jun 20, 2020 6:13:31 PM com.danaDeals.base.TestBase checkPath
INFO: Expected result: /api/user/1156/logout
Jun 20, 2020 6:13:31 PM com.danaDeals.base.TestBase checkPath
INFO: Actual result:  /api/user/1156/logout
Jun 20, 2020 6:13:31 PM com.danaDeals.base.TestBase checkTimestamp
INFO: timestamp ===> 2020/06/20 18:13
Jun 20, 2020 6:13:31 PM com.danaDeals.base.TestBase checkDevStatus
INFO: ***** Check Developer Status *****
Jun 20, 2020 6:13:31 PM com.danaDeals.base.TestBase checkDevStatus
INFO: Expected result: 041
Jun 20, 2020 6:13:31 PM com.danaDeals.base.TestBase checkDevStatus
INFO: dev status ===> 041
Jun 20, 2020 6:13:31 PM com.danaDeals.base.TestBase checkStatusCode
INFO: ***** Check Status Code *****
Jun 20, 2020 6:13:31 PM com.danaDeals.base.TestBase checkStatusCode
INFO: Expected result: 200
Jun 20, 2020 6:13:31 PM com.danaDeals.base.TestBase checkStatusCode
INFO: Actual result: 200
Jun 20, 2020 6:13:31 PM com.danaDeals.base.TestBase checkResponseTime
INFO: ***** Check Response Time *****
Jun 20, 2020 6:13:31 PM com.danaDeals.base.TestBase checkResponseTime
INFO: Response Time = 2494
