Jun 20, 2020 6:12:20 PM com.danaDeals.base.TestBase setIdUser
INFO: idUser  ===> 1153
Jun 20, 2020 6:12:20 PM com.danaDeals.base.TestBase checkBody
INFO: ***** Check Message *****
Jun 20, 2020 6:12:20 PM com.danaDeals.base.TestBase checkBody
INFO: Expected result: Registration is successful.
Jun 20, 2020 6:12:20 PM com.danaDeals.base.TestBase checkBody
INFO: Actual result: Registration is successful.
Jun 20, 2020 6:12:20 PM com.danaDeals.base.TestBase checkPath
INFO: ***** Check Path *****
Jun 20, 2020 6:12:20 PM com.danaDeals.base.TestBase checkPath
INFO: Expected result: /api/auth/register
Jun 20, 2020 6:12:20 PM com.danaDeals.base.TestBase checkPath
INFO: Actual result:  /api/auth/register
Jun 20, 2020 6:12:20 PM com.danaDeals.base.TestBase checkTimestamp
INFO: timestamp ===> 2020/06/20 18:12
Jun 20, 2020 6:12:20 PM com.danaDeals.base.TestBase checkDevStatus
INFO: ***** Check Developer Status *****
Jun 20, 2020 6:12:20 PM com.danaDeals.base.TestBase checkDevStatus
INFO: Expected result: 001
Jun 20, 2020 6:12:20 PM com.danaDeals.base.TestBase checkDevStatus
INFO: dev status ===> 001
Jun 20, 2020 6:12:20 PM com.danaDeals.base.TestBase checkStatusCode
INFO: ***** Check Status Code *****
Jun 20, 2020 6:12:20 PM com.danaDeals.base.TestBase checkStatusCode
INFO: Expected result: 201
Jun 20, 2020 6:12:20 PM com.danaDeals.base.TestBase checkStatusCode
INFO: Actual result: 201
Jun 20, 2020 6:12:20 PM com.danaDeals.base.TestBase checkResponseTime
INFO: ***** Check Response Time *****
Jun 20, 2020 6:12:20 PM com.danaDeals.base.TestBase checkResponseTime
INFO: Response Time = 2279
Jun 20, 2020 6:12:22 PM com.danaDeals.base.TestBase setIdUser
INFO: idUser  ===> 1153
Jun 20, 2020 6:12:22 PM com.danaDeals.base.TestBase setToken
INFO: token  ===>eyJhbGciOiJIUzUxMiJ9.eyJzdWIiOiIzYWFiODkxMS1iYjM0LTRmZTUtYWY4ZC1kZWJjMTM1MjU1OWQxMTUzIiwiZXhwIjoxNTkzMjU2MzQyLCJpYXQiOjE1OTI2NTE1NDJ9.0N0bNVwnFp0ucL2RGU6iVReJqwbK6rlPmuwXrJxa5Vc-U7cEMkzjUR_YfNs1VAGIsAXyWw9a_arACHcWAZtVEQ
Jun 20, 2020 6:12:22 PM com.danaDeals.base.TestBase checkBody
INFO: ***** Check Message *****
Jun 20, 2020 6:12:22 PM com.danaDeals.base.TestBase checkBody
INFO: Expected result: You are logged in.
Jun 20, 2020 6:12:22 PM com.danaDeals.base.TestBase checkBody
INFO: Actual result: You are logged in.
Jun 20, 2020 6:12:22 PM com.danaDeals.base.TestBase checkPath
INFO: ***** Check Path *****
Jun 20, 2020 6:12:22 PM com.danaDeals.base.TestBase checkPath
INFO: Expected result: /api/auth/login
Jun 20, 2020 6:12:22 PM com.danaDeals.base.TestBase checkPath
INFO: Actual result:  /api/auth/login
Jun 20, 2020 6:12:22 PM com.danaDeals.base.TestBase checkTimestamp
INFO: timestamp ===> 2020/06/20 18:12
Jun 20, 2020 6:12:22 PM com.danaDeals.base.TestBase checkDevStatus
INFO: ***** Check Developer Status *****
Jun 20, 2020 6:12:22 PM com.danaDeals.base.TestBase checkDevStatus
INFO: Expected result: 010
Jun 20, 2020 6:12:22 PM com.danaDeals.base.TestBase checkDevStatus
INFO: dev status ===> 010
Jun 20, 2020 6:12:22 PM com.danaDeals.base.TestBase checkStatusCode
INFO: ***** Check Status Code *****
Jun 20, 2020 6:12:22 PM com.danaDeals.base.TestBase checkStatusCode
INFO: Expected result: 200
Jun 20, 2020 6:12:22 PM com.danaDeals.base.TestBase checkStatusCode
INFO: Actual result: 200
Jun 20, 2020 6:12:22 PM com.danaDeals.base.TestBase checkResponseTime
INFO: ***** Check Response Time *****
Jun 20, 2020 6:12:22 PM com.danaDeals.base.TestBase checkResponseTime
INFO: Response Time = 2413
Jun 20, 2020 6:12:25 PM com.danaDeals.base.TestBase checkBody
INFO: ***** Check Message *****
Jun 20, 2020 6:12:25 PM com.danaDeals.base.TestBase checkBody
INFO: Expected result: Your TOPUP is successful.
Jun 20, 2020 6:12:25 PM com.danaDeals.base.TestBase checkBody
INFO: Actual result: Your TOPUP is successful.
Jun 20, 2020 6:12:25 PM com.danaDeals.base.TestBase checkPath
INFO: ***** Check Path *****
Jun 20, 2020 6:12:25 PM com.danaDeals.base.TestBase checkPath
INFO: Expected result: /api/user/1153/transaction/topup
Jun 20, 2020 6:12:25 PM com.danaDeals.base.TestBase checkPath
INFO: Actual result:  /api/user/1153/transaction/topup
Jun 20, 2020 6:12:25 PM com.danaDeals.base.TestBase checkTimestamp
INFO: timestamp ===> 2020/06/20 18:12
Jun 20, 2020 6:12:25 PM com.danaDeals.base.TestBase checkDevStatus
INFO: ***** Check Developer Status *****
Jun 20, 2020 6:12:25 PM com.danaDeals.base.TestBase checkDevStatus
INFO: Expected result: 033
Jun 20, 2020 6:12:25 PM com.danaDeals.base.TestBase checkDevStatus
INFO: dev status ===> 033
Jun 20, 2020 6:12:25 PM com.danaDeals.base.TestBase checkStatusCode
INFO: ***** Check Status Code *****
Jun 20, 2020 6:12:25 PM com.danaDeals.base.TestBase checkStatusCode
INFO: Expected result: 201
Jun 20, 2020 6:12:25 PM com.danaDeals.base.TestBase checkStatusCode
INFO: Actual result: 201
Jun 20, 2020 6:12:25 PM com.danaDeals.base.TestBase checkResponseTime
INFO: ***** Check Response Time *****
Jun 20, 2020 6:12:25 PM com.danaDeals.base.TestBase checkResponseTime
INFO: Response Time = 2549
Jun 20, 2020 6:12:27 PM com.danaDeals.base.TestBase setIdTransaction
INFO: idTransaction  ===> 633
Jun 20, 2020 6:12:27 PM com.danaDeals.base.TestBase checkBody
INFO: ***** Check Message *****
Jun 20, 2020 6:12:27 PM com.danaDeals.base.TestBase checkBody
INFO: Expected result: A new transaction has been created!
Jun 20, 2020 6:12:27 PM com.danaDeals.base.TestBase checkBody
INFO: Actual result: A new transaction has been created!
Jun 20, 2020 6:12:27 PM com.danaDeals.base.TestBase checkPath
INFO: ***** Check Path *****
Jun 20, 2020 6:12:27 PM com.danaDeals.base.TestBase checkPath
INFO: Expected result: /api/user/1153/transaction/voucher
Jun 20, 2020 6:12:27 PM com.danaDeals.base.TestBase checkPath
INFO: Actual result:  /api/user/1153/transaction/voucher
Jun 20, 2020 6:12:27 PM com.danaDeals.base.TestBase checkTimestamp
INFO: timestamp ===> 2020/06/20 18:12
Jun 20, 2020 6:12:27 PM com.danaDeals.base.TestBase checkDevStatus
INFO: ***** Check Developer Status *****
Jun 20, 2020 6:12:27 PM com.danaDeals.base.TestBase checkDevStatus
INFO: Expected result: 052
Jun 20, 2020 6:12:27 PM com.danaDeals.base.TestBase checkDevStatus
INFO: dev status ===> 052
Jun 20, 2020 6:12:27 PM com.danaDeals.base.TestBase checkStatusCode
INFO: ***** Check Status Code *****
Jun 20, 2020 6:12:27 PM com.danaDeals.base.TestBase checkStatusCode
INFO: Expected result: 201
Jun 20, 2020 6:12:27 PM com.danaDeals.base.TestBase checkStatusCode
INFO: Actual result: 201
Jun 20, 2020 6:12:27 PM com.danaDeals.base.TestBase checkResponseTime
INFO: ***** Check Response Time *****
Jun 20, 2020 6:12:27 PM com.danaDeals.base.TestBase checkResponseTime
INFO: Response Time = 2331
Jun 20, 2020 6:12:30 PM com.danaDeals.base.TestBase setIdUser
INFO: idUser  ===> 12
Jun 20, 2020 6:12:30 PM com.danaDeals.base.TestBase setToken
INFO: token  ===>eyJhbGciOiJIUzUxMiJ9.eyJzdWIiOiIyODRlMTA4Ny02OGVlLTQ2ZDUtYTE2ZC0wZmZiNTE5YTE5ZWQxMiIsImV4cCI6MTU5MzI1NjM0OSwiaWF0IjoxNTkyNjUxNTQ5fQ.pI8NfruASqf_IdlTXCkuFX8qzFL789irTRqgej3iMUCfOTlc88oUs7d7BMzFALrWNwIJ1yUYk5TPz3iu4hQLsg
Jun 20, 2020 6:12:30 PM com.danaDeals.base.TestBase checkBody
INFO: ***** Check Message *****
Jun 20, 2020 6:12:30 PM com.danaDeals.base.TestBase checkBody
INFO: Expected result: You are logged in.
Jun 20, 2020 6:12:30 PM com.danaDeals.base.TestBase checkBody
INFO: Actual result: You are logged in.
Jun 20, 2020 6:12:30 PM com.danaDeals.base.TestBase checkPath
INFO: ***** Check Path *****
Jun 20, 2020 6:12:30 PM com.danaDeals.base.TestBase checkPath
INFO: Expected result: /api/auth/login
Jun 20, 2020 6:12:30 PM com.danaDeals.base.TestBase checkPath
INFO: Actual result:  /api/auth/login
Jun 20, 2020 6:12:30 PM com.danaDeals.base.TestBase checkTimestamp
INFO: timestamp ===> 2020/06/20 18:12
Jun 20, 2020 6:12:30 PM com.danaDeals.base.TestBase checkDevStatus
INFO: ***** Check Developer Status *****
Jun 20, 2020 6:12:30 PM com.danaDeals.base.TestBase checkDevStatus
INFO: Expected result: 010
Jun 20, 2020 6:12:30 PM com.danaDeals.base.TestBase checkDevStatus
INFO: dev status ===> 010
Jun 20, 2020 6:12:30 PM com.danaDeals.base.TestBase checkStatusCode
INFO: ***** Check Status Code *****
Jun 20, 2020 6:12:30 PM com.danaDeals.base.TestBase checkStatusCode
INFO: Expected result: 200
Jun 20, 2020 6:12:30 PM com.danaDeals.base.TestBase checkStatusCode
INFO: Actual result: 200
Jun 20, 2020 6:12:30 PM com.danaDeals.base.TestBase checkResponseTime
INFO: ***** Check Response Time *****
Jun 20, 2020 6:12:30 PM com.danaDeals.base.TestBase checkResponseTime
INFO: Response Time = 2391
Jun 20, 2020 6:12:32 PM com.danaDeals.base.TestBase checkBody
INFO: ***** Check Message *****
Jun 20, 2020 6:12:32 PM com.danaDeals.base.TestBase checkBody
INFO: Expected result: Successfully change status.
Jun 20, 2020 6:12:32 PM com.danaDeals.base.TestBase checkBody
INFO: Actual result: Successfully change status.
Jun 20, 2020 6:12:32 PM com.danaDeals.base.TestBase checkPath
INFO: ***** Check Path *****
Jun 20, 2020 6:12:32 PM com.danaDeals.base.TestBase checkPath
INFO: Expected result: /api/admin/update-status-voucher/26/restock
Jun 20, 2020 6:12:32 PM com.danaDeals.base.TestBase checkPath
INFO: Actual result:  /api/admin/update-status-voucher/26/restock
Jun 20, 2020 6:12:32 PM com.danaDeals.base.TestBase checkTimestamp
INFO: timestamp ===> 2020/06/20 18:12
Jun 20, 2020 6:12:32 PM com.danaDeals.base.TestBase checkDevStatus
INFO: ***** Check Developer Status *****
Jun 20, 2020 6:12:32 PM com.danaDeals.base.TestBase checkDevStatus
INFO: Expected result: 044
Jun 20, 2020 6:12:32 PM com.danaDeals.base.TestBase checkDevStatus
INFO: dev status ===> 044
Jun 20, 2020 6:12:32 PM com.danaDeals.base.TestBase checkStatusCode
INFO: ***** Check Status Code *****
Jun 20, 2020 6:12:32 PM com.danaDeals.base.TestBase checkStatusCode
INFO: Expected result: 200
Jun 20, 2020 6:12:32 PM com.danaDeals.base.TestBase checkStatusCode
INFO: Actual result: 200
Jun 20, 2020 6:12:32 PM com.danaDeals.base.TestBase checkResponseTime
INFO: ***** Check Response Time *****
Jun 20, 2020 6:12:32 PM com.danaDeals.base.TestBase checkResponseTime
INFO: Response Time = 2361
Jun 20, 2020 6:12:35 PM com.danaDeals.base.TestBase checkBody
INFO: ***** Check Message *****
Jun 20, 2020 6:12:35 PM com.danaDeals.base.TestBase checkBody
INFO: Expected result: You are logged out.
Jun 20, 2020 6:12:35 PM com.danaDeals.base.TestBase checkBody
INFO: Actual result: You are logged out.
Jun 20, 2020 6:12:35 PM com.danaDeals.base.TestBase checkPath
INFO: ***** Check Path *****
Jun 20, 2020 6:12:35 PM com.danaDeals.base.TestBase checkPath
INFO: Expected result: /api/user/12/logout
Jun 20, 2020 6:12:35 PM com.danaDeals.base.TestBase checkPath
INFO: Actual result:  /api/user/12/logout
Jun 20, 2020 6:12:35 PM com.danaDeals.base.TestBase checkTimestamp
INFO: timestamp ===> 2020/06/20 18:12
Jun 20, 2020 6:12:35 PM com.danaDeals.base.TestBase checkDevStatus
INFO: ***** Check Developer Status *****
Jun 20, 2020 6:12:35 PM com.danaDeals.base.TestBase checkDevStatus
INFO: Expected result: 041
Jun 20, 2020 6:12:35 PM com.danaDeals.base.TestBase checkDevStatus
INFO: dev status ===> 041
Jun 20, 2020 6:12:35 PM com.danaDeals.base.TestBase checkStatusCode
INFO: ***** Check Status Code *****
Jun 20, 2020 6:12:35 PM com.danaDeals.base.TestBase checkStatusCode
INFO: Expected result: 200
Jun 20, 2020 6:12:35 PM com.danaDeals.base.TestBase checkStatusCode
INFO: Actual result: 200
Jun 20, 2020 6:12:35 PM com.danaDeals.base.TestBase checkResponseTime
INFO: ***** Check Response Time *****
Jun 20, 2020 6:12:35 PM com.danaDeals.base.TestBase checkResponseTime
INFO: Response Time = 2436
Jun 20, 2020 6:12:37 PM com.danaDeals.base.TestBase checkBody
INFO: ***** Check Message *****
Jun 20, 2020 6:12:37 PM com.danaDeals.base.TestBase checkBody
INFO: Expected result: The voucher is currently not available.
Jun 20, 2020 6:12:37 PM com.danaDeals.base.TestBase checkBody
INFO: Actual result: The voucher is currently not available.
Jun 20, 2020 6:12:37 PM com.danaDeals.base.TestBase checkPath
INFO: ***** Check Path *****
Jun 20, 2020 6:12:37 PM com.danaDeals.base.TestBase checkPath
INFO: Expected result: /api/user/1153/transaction/voucher
Jun 20, 2020 6:12:37 PM com.danaDeals.base.TestBase checkPath
INFO: Actual result:  /api/user/1153/transaction/voucher
Jun 20, 2020 6:12:37 PM com.danaDeals.base.TestBase checkTimestamp
INFO: timestamp ===> 2020/06/20 18:12
Jun 20, 2020 6:12:37 PM com.danaDeals.base.TestBase checkDevStatus
INFO: ***** Check Developer Status *****
Jun 20, 2020 6:12:37 PM com.danaDeals.base.TestBase checkDevStatus
INFO: Expected result: 027
Jun 20, 2020 6:12:37 PM com.danaDeals.base.TestBase checkDevStatus
INFO: dev status ===> 027
Jun 20, 2020 6:12:37 PM com.danaDeals.base.TestBase checkStatusCode
INFO: ***** Check Status Code *****
Jun 20, 2020 6:12:37 PM com.danaDeals.base.TestBase checkStatusCode
INFO: Expected result: 404
Jun 20, 2020 6:12:37 PM com.danaDeals.base.TestBase checkStatusCode
INFO: Actual result: 404
Jun 20, 2020 6:12:37 PM com.danaDeals.base.TestBase checkResponseTime
INFO: ***** Check Response Time *****
Jun 20, 2020 6:12:37 PM com.danaDeals.base.TestBase checkResponseTime
INFO: Response Time = 2278
Jun 20, 2020 6:12:39 PM com.danaDeals.base.TestBase checkBody
INFO: ***** Check Message *****
Jun 20, 2020 6:12:39 PM com.danaDeals.base.TestBase checkBody
INFO: Expected result: You are logged out.
Jun 20, 2020 6:12:39 PM com.danaDeals.base.TestBase checkBody
INFO: Actual result: You are logged out.
Jun 20, 2020 6:12:39 PM com.danaDeals.base.TestBase checkPath
INFO: ***** Check Path *****
Jun 20, 2020 6:12:39 PM com.danaDeals.base.TestBase checkPath
INFO: Expected result: /api/user/1153/logout
Jun 20, 2020 6:12:39 PM com.danaDeals.base.TestBase checkPath
INFO: Actual result:  /api/user/1153/logout
Jun 20, 2020 6:12:39 PM com.danaDeals.base.TestBase checkTimestamp
INFO: timestamp ===> 2020/06/20 18:12
Jun 20, 2020 6:12:39 PM com.danaDeals.base.TestBase checkDevStatus
INFO: ***** Check Developer Status *****
Jun 20, 2020 6:12:39 PM com.danaDeals.base.TestBase checkDevStatus
INFO: Expected result: 041
Jun 20, 2020 6:12:39 PM com.danaDeals.base.TestBase checkDevStatus
INFO: dev status ===> 041
Jun 20, 2020 6:12:39 PM com.danaDeals.base.TestBase checkStatusCode
INFO: ***** Check Status Code *****
Jun 20, 2020 6:12:39 PM com.danaDeals.base.TestBase checkStatusCode
INFO: Expected result: 200
Jun 20, 2020 6:12:39 PM com.danaDeals.base.TestBase checkStatusCode
INFO: Actual result: 200
Jun 20, 2020 6:12:39 PM com.danaDeals.base.TestBase checkResponseTime
INFO: ***** Check Response Time *****
Jun 20, 2020 6:12:39 PM com.danaDeals.base.TestBase checkResponseTime
INFO: Response Time = 2435
Jun 20, 2020 6:12:42 PM com.danaDeals.base.TestBase setIdUser
INFO: idUser  ===> 1154
Jun 20, 2020 6:12:42 PM com.danaDeals.base.TestBase checkRegisData
INFO: ***** Check Register Data Content *****
Jun 20, 2020 6:12:42 PM com.danaDeals.base.TestBase checkRegisData
INFO: Actual name: mCYzUaGDzH NDlVTkOMZ
Jun 20, 2020 6:12:42 PM com.danaDeals.base.TestBase checkRegisData
INFO: Expect name: mCYzUaGDzH NDlVTkOMZ
Jun 20, 2020 6:12:42 PM com.danaDeals.base.TestBase checkRegisData
INFO: Actual email: bxkgkibgbwglbgxazjldgjetkzyjkkvonougotofpfkjqhcvzw@cddbeewmztuyljbxlef.hlk
Jun 20, 2020 6:12:42 PM com.danaDeals.base.TestBase checkRegisData
INFO: Expect email: bxkgkibgbwglbgxazjldgjetkzyjkkvonougotofpfkjqhcvzw@cddbeewmztuyljbxlef.hlk
Jun 20, 2020 6:12:42 PM com.danaDeals.base.TestBase checkRegisData
INFO: Actual phone number: +6281819750495
Jun 20, 2020 6:12:42 PM com.danaDeals.base.TestBase checkRegisData
INFO: Expect phone number: +6281819750495081819750495
Jun 20, 2020 6:12:42 PM com.danaDeals.base.TestBase checkRegisData
INFO: Actual id role: 2
Jun 20, 2020 6:12:42 PM com.danaDeals.base.TestBase checkRegisData
INFO: Expect id role: 2
Jun 20, 2020 6:12:42 PM com.danaDeals.base.TestBase checkRegisData
INFO: Actual id user: 1154
Jun 20, 2020 6:12:42 PM com.danaDeals.base.TestBase checkRegisData
INFO: Expect id user: 1154
Jun 20, 2020 6:12:42 PM com.danaDeals.base.TestBase checkRegisData
INFO: Actual balance: 0.0
Jun 20, 2020 6:12:42 PM com.danaDeals.base.TestBase checkRegisData
INFO: Expect balance: 0.0
Jun 20, 2020 6:12:42 PM com.danaDeals.base.TestBase checkRegisData
INFO: Actual role name: User
Jun 20, 2020 6:12:42 PM com.danaDeals.base.TestBase checkRegisData
INFO: Expect role name: User
Jun 20, 2020 6:12:42 PM com.danaDeals.base.TestBase checkBody
INFO: ***** Check Message *****
Jun 20, 2020 6:12:42 PM com.danaDeals.base.TestBase checkBody
INFO: Expected result: Registration is successful.
Jun 20, 2020 6:12:42 PM com.danaDeals.base.TestBase checkBody
INFO: Actual result: Registration is successful.
Jun 20, 2020 6:12:42 PM com.danaDeals.base.TestBase checkPath
INFO: ***** Check Path *****
Jun 20, 2020 6:12:42 PM com.danaDeals.base.TestBase checkPath
INFO: Expected result: /api/auth/register
Jun 20, 2020 6:12:42 PM com.danaDeals.base.TestBase checkPath
INFO: Actual result:  /api/auth/register
Jun 20, 2020 6:12:42 PM com.danaDeals.base.TestBase checkTimestamp
INFO: timestamp ===> 2020/06/20 18:12
Jun 20, 2020 6:12:42 PM com.danaDeals.base.TestBase checkDevStatus
INFO: ***** Check Developer Status *****
Jun 20, 2020 6:12:42 PM com.danaDeals.base.TestBase checkDevStatus
INFO: Expected result: 001
Jun 20, 2020 6:12:42 PM com.danaDeals.base.TestBase checkDevStatus
INFO: dev status ===> 001
Jun 20, 2020 6:12:42 PM com.danaDeals.base.TestBase checkStatusCode
INFO: ***** Check Status Code *****
Jun 20, 2020 6:12:42 PM com.danaDeals.base.TestBase checkStatusCode
INFO: Expected result: 201
Jun 20, 2020 6:12:42 PM com.danaDeals.base.TestBase checkStatusCode
INFO: Actual result: 201
Jun 20, 2020 6:12:42 PM com.danaDeals.base.TestBase checkResponseTime
INFO: ***** Check Response Time *****
Jun 20, 2020 6:12:42 PM com.danaDeals.base.TestBase checkResponseTime
INFO: Response Time = 2255
Jun 20, 2020 6:12:44 PM com.danaDeals.base.TestBase setIdUser
INFO: idUser  ===> 1154
Jun 20, 2020 6:12:44 PM com.danaDeals.base.TestBase setToken
INFO: token  ===>eyJhbGciOiJIUzUxMiJ9.eyJzdWIiOiJhYjViOWYyNy00NGM1LTRlMTctOGUyYS00YWE3N2I2OTI5YmQxMTU0IiwiZXhwIjoxNTkzMjU2MzYzLCJpYXQiOjE1OTI2NTE1NjN9.a1LVSnb0e1idw-GrPKG-MYSgWBAvDyI47mLMoEcQ0vP64floE7dPhzXRonoCu9ade_DAJaDWMt3r1NhLxvtoJg
Jun 20, 2020 6:12:44 PM com.danaDeals.base.TestBase checkLoginData
INFO: ***** Check Login Data Content *****
Jun 20, 2020 6:12:44 PM com.danaDeals.base.TestBase checkLoginData
INFO: Actual name: mCYzUaGDzH NDlVTkOMZ
Jun 20, 2020 6:12:44 PM com.danaDeals.base.TestBase checkLoginData
INFO: Expect name: mCYzUaGDzH NDlVTkOMZ
Jun 20, 2020 6:12:44 PM com.danaDeals.base.TestBase checkLoginData
INFO: Actual email: bxkgkibgbwglbgxazjldgjetkzyjkkvonougotofpfkjqhcvzw@cddbeewmztuyljbxlef.hlk
Jun 20, 2020 6:12:44 PM com.danaDeals.base.TestBase checkLoginData
INFO: Expect email: bxkgkibgbwglbgxazjldgjetkzyjkkvonougotofpfkjqhcvzw@cddbeewmztuyljbxlef.hlk
Jun 20, 2020 6:12:44 PM com.danaDeals.base.TestBase checkLoginData
INFO: Actual phone number: +6281819750495
Jun 20, 2020 6:12:44 PM com.danaDeals.base.TestBase checkLoginData
INFO: Expect phone number: 081819750495
Jun 20, 2020 6:12:44 PM com.danaDeals.base.TestBase checkLoginData
INFO: Actual id role: 2
Jun 20, 2020 6:12:44 PM com.danaDeals.base.TestBase checkLoginData
INFO: Expect id role: 2
Jun 20, 2020 6:12:44 PM com.danaDeals.base.TestBase checkLoginData
INFO: Actual id user: 1154
Jun 20, 2020 6:12:44 PM com.danaDeals.base.TestBase checkLoginData
INFO: Expect id user: 1154
Jun 20, 2020 6:12:44 PM com.danaDeals.base.TestBase checkLoginData
INFO: Actual balance: 0.0
Jun 20, 2020 6:12:44 PM com.danaDeals.base.TestBase checkLoginData
INFO: Expect balance: 0.0
Jun 20, 2020 6:12:44 PM com.danaDeals.base.TestBase checkLoginData
INFO: Actual role name: User
Jun 20, 2020 6:12:44 PM com.danaDeals.base.TestBase checkLoginData
INFO: Expect role name: User
Jun 20, 2020 6:12:44 PM com.danaDeals.base.TestBase checkBody
INFO: ***** Check Message *****
Jun 20, 2020 6:12:44 PM com.danaDeals.base.TestBase checkBody
INFO: Expected result: You are logged in.
Jun 20, 2020 6:12:44 PM com.danaDeals.base.TestBase checkBody
INFO: Actual result: You are logged in.
Jun 20, 2020 6:12:44 PM com.danaDeals.base.TestBase checkPath
INFO: ***** Check Path *****
Jun 20, 2020 6:12:44 PM com.danaDeals.base.TestBase checkPath
INFO: Expected result: /api/auth/login
Jun 20, 2020 6:12:44 PM com.danaDeals.base.TestBase checkPath
INFO: Actual result:  /api/auth/login
Jun 20, 2020 6:12:44 PM com.danaDeals.base.TestBase checkTimestamp
INFO: timestamp ===> 2020/06/20 18:12
Jun 20, 2020 6:12:44 PM com.danaDeals.base.TestBase checkDevStatus
INFO: ***** Check Developer Status *****
Jun 20, 2020 6:12:44 PM com.danaDeals.base.TestBase checkDevStatus
INFO: Expected result: 010
Jun 20, 2020 6:12:44 PM com.danaDeals.base.TestBase checkDevStatus
INFO: dev status ===> 010
Jun 20, 2020 6:12:44 PM com.danaDeals.base.TestBase checkStatusCode
INFO: ***** Check Status Code *****
Jun 20, 2020 6:12:44 PM com.danaDeals.base.TestBase checkStatusCode
INFO: Expected result: 200
Jun 20, 2020 6:12:44 PM com.danaDeals.base.TestBase checkStatusCode
INFO: Actual result: 200
Jun 20, 2020 6:12:44 PM com.danaDeals.base.TestBase checkResponseTime
INFO: ***** Check Response Time *****
Jun 20, 2020 6:12:44 PM com.danaDeals.base.TestBase checkResponseTime
INFO: Response Time = 2297
Jun 20, 2020 6:12:46 PM com.danaDeals.base.TestBase checkBody
INFO: ***** Check Message *****
Jun 20, 2020 6:12:46 PM com.danaDeals.base.TestBase checkBody
INFO: Expected result: Your TOPUP is successful.
Jun 20, 2020 6:12:46 PM com.danaDeals.base.TestBase checkBody
INFO: Actual result: Your TOPUP is successful.
Jun 20, 2020 6:12:46 PM com.danaDeals.base.TestBase checkPath
INFO: ***** Check Path *****
Jun 20, 2020 6:12:46 PM com.danaDeals.base.TestBase checkPath
INFO: Expected result: /api/user/1154/transaction/topup
Jun 20, 2020 6:12:46 PM com.danaDeals.base.TestBase checkPath
INFO: Actual result:  /api/user/1154/transaction/topup
Jun 20, 2020 6:12:46 PM com.danaDeals.base.TestBase checkTimestamp
INFO: timestamp ===> 2020/06/20 18:12
Jun 20, 2020 6:12:46 PM com.danaDeals.base.TestBase checkDevStatus
INFO: ***** Check Developer Status *****
Jun 20, 2020 6:12:46 PM com.danaDeals.base.TestBase checkDevStatus
INFO: Expected result: 033
Jun 20, 2020 6:12:46 PM com.danaDeals.base.TestBase checkDevStatus
INFO: dev status ===> 033
Jun 20, 2020 6:12:46 PM com.danaDeals.base.TestBase checkStatusCode
INFO: ***** Check Status Code *****
Jun 20, 2020 6:12:46 PM com.danaDeals.base.TestBase checkStatusCode
INFO: Expected result: 201
Jun 20, 2020 6:12:46 PM com.danaDeals.base.TestBase checkStatusCode
INFO: Actual result: 201
Jun 20, 2020 6:12:46 PM com.danaDeals.base.TestBase checkResponseTime
INFO: ***** Check Response Time *****
Jun 20, 2020 6:12:46 PM com.danaDeals.base.TestBase checkResponseTime
INFO: Response Time = 2412
Jun 20, 2020 6:12:49 PM com.danaDeals.base.TestBase setIdTransaction
INFO: idTransaction  ===> 635
Jun 20, 2020 6:12:49 PM com.danaDeals.base.TestBase checkBody
INFO: ***** Check Message *****
Jun 20, 2020 6:12:49 PM com.danaDeals.base.TestBase checkBody
INFO: Expected result: A new transaction has been created!
Jun 20, 2020 6:12:49 PM com.danaDeals.base.TestBase checkBody
INFO: Actual result: A new transaction has been created!
Jun 20, 2020 6:12:49 PM com.danaDeals.base.TestBase checkPath
INFO: ***** Check Path *****
Jun 20, 2020 6:12:49 PM com.danaDeals.base.TestBase checkPath
INFO: Expected result: /api/user/1154/transaction/voucher
Jun 20, 2020 6:12:49 PM com.danaDeals.base.TestBase checkPath
INFO: Actual result:  /api/user/1154/transaction/voucher
Jun 20, 2020 6:12:49 PM com.danaDeals.base.TestBase checkTimestamp
INFO: timestamp ===> 2020/06/20 18:12
Jun 20, 2020 6:12:49 PM com.danaDeals.base.TestBase checkDevStatus
INFO: ***** Check Developer Status *****
Jun 20, 2020 6:12:49 PM com.danaDeals.base.TestBase checkDevStatus
INFO: Expected result: 052
Jun 20, 2020 6:12:49 PM com.danaDeals.base.TestBase checkDevStatus
INFO: dev status ===> 052
Jun 20, 2020 6:12:49 PM com.danaDeals.base.TestBase checkStatusCode
INFO: ***** Check Status Code *****
Jun 20, 2020 6:12:49 PM com.danaDeals.base.TestBase checkStatusCode
INFO: Expected result: 201
Jun 20, 2020 6:12:49 PM com.danaDeals.base.TestBase checkStatusCode
INFO: Actual result: 201
Jun 20, 2020 6:12:49 PM com.danaDeals.base.TestBase checkResponseTime
INFO: ***** Check Response Time *****
Jun 20, 2020 6:12:49 PM com.danaDeals.base.TestBase checkResponseTime
INFO: Response Time = 2382
Jun 20, 2020 6:12:51 PM com.danaDeals.base.TestBase setIdTransaction
INFO: idTransaction  ===> 636
Jun 20, 2020 6:12:51 PM com.danaDeals.base.TestBase checkBody
INFO: ***** Check Message *****
Jun 20, 2020 6:12:51 PM com.danaDeals.base.TestBase checkBody
INFO: Expected result: A new transaction has been created!
Jun 20, 2020 6:12:51 PM com.danaDeals.base.TestBase checkBody
INFO: Actual result: A new transaction has been created!
Jun 20, 2020 6:12:51 PM com.danaDeals.base.TestBase checkPath
INFO: ***** Check Path *****
Jun 20, 2020 6:12:51 PM com.danaDeals.base.TestBase checkPath
INFO: Expected result: /api/user/1154/transaction/voucher
Jun 20, 2020 6:12:51 PM com.danaDeals.base.TestBase checkPath
INFO: Actual result:  /api/user/1154/transaction/voucher
Jun 20, 2020 6:12:51 PM com.danaDeals.base.TestBase checkTimestamp
INFO: timestamp ===> 2020/06/20 18:12
Jun 20, 2020 6:12:51 PM com.danaDeals.base.TestBase checkDevStatus
INFO: ***** Check Developer Status *****
Jun 20, 2020 6:12:51 PM com.danaDeals.base.TestBase checkDevStatus
INFO: Expected result: 052
Jun 20, 2020 6:12:51 PM com.danaDeals.base.TestBase checkDevStatus
INFO: dev status ===> 052
Jun 20, 2020 6:12:51 PM com.danaDeals.base.TestBase checkStatusCode
INFO: ***** Check Status Code *****
Jun 20, 2020 6:12:51 PM com.danaDeals.base.TestBase checkStatusCode
INFO: Expected result: 201
Jun 20, 2020 6:12:51 PM com.danaDeals.base.TestBase checkStatusCode
INFO: Actual result: 201
Jun 20, 2020 6:12:51 PM com.danaDeals.base.TestBase checkResponseTime
INFO: ***** Check Response Time *****
Jun 20, 2020 6:12:51 PM com.danaDeals.base.TestBase checkResponseTime
INFO: Response Time = 2468
Jun 20, 2020 6:12:54 PM com.danaDeals.base.TestBase checkBody
INFO: ***** Check Message *****
Jun 20, 2020 6:12:54 PM com.danaDeals.base.TestBase checkBody
INFO: Expected result: Your payment is successfull.
Jun 20, 2020 6:12:54 PM com.danaDeals.base.TestBase checkBody
INFO: Actual result: Your payment is successfull.
Jun 20, 2020 6:12:54 PM com.danaDeals.base.TestBase checkPath
INFO: ***** Check Path *****
Jun 20, 2020 6:12:54 PM com.danaDeals.base.TestBase checkPath
INFO: Expected result: /api/user/1154/transaction/voucher
Jun 20, 2020 6:12:54 PM com.danaDeals.base.TestBase checkPath
INFO: Actual result:  /api/user/1154/transaction/voucher
Jun 20, 2020 6:12:54 PM com.danaDeals.base.TestBase checkTimestamp
INFO: timestamp ===> 2020/06/20 18:12
Jun 20, 2020 6:12:54 PM com.danaDeals.base.TestBase checkDevStatus
INFO: ***** Check Developer Status *****
Jun 20, 2020 6:12:54 PM com.danaDeals.base.TestBase checkDevStatus
INFO: Expected result: 028
Jun 20, 2020 6:12:54 PM com.danaDeals.base.TestBase checkDevStatus
INFO: dev status ===> 028
Jun 20, 2020 6:12:54 PM com.danaDeals.base.TestBase checkStatusCode
INFO: ***** Check Status Code *****
Jun 20, 2020 6:12:54 PM com.danaDeals.base.TestBase checkStatusCode
INFO: Expected result: 200
Jun 20, 2020 6:12:54 PM com.danaDeals.base.TestBase checkStatusCode
INFO: Actual result: 200
Jun 20, 2020 6:12:54 PM com.danaDeals.base.TestBase checkResponseTime
INFO: ***** Check Response Time *****
Jun 20, 2020 6:12:54 PM com.danaDeals.base.TestBase checkResponseTime
INFO: Response Time = 2257
Jun 20, 2020 6:12:56 PM com.danaDeals.base.TestBase checkBody
INFO: ***** Check Message *****
Jun 20, 2020 6:12:56 PM com.danaDeals.base.TestBase checkBody
INFO: Expected result: You are logged out.
Jun 20, 2020 6:12:56 PM com.danaDeals.base.TestBase checkBody
INFO: Actual result: You are logged out.
Jun 20, 2020 6:12:56 PM com.danaDeals.base.TestBase checkPath
INFO: ***** Check Path *****
Jun 20, 2020 6:12:56 PM com.danaDeals.base.TestBase checkPath
INFO: Expected result: /api/user/1154/logout
Jun 20, 2020 6:12:56 PM com.danaDeals.base.TestBase checkPath
INFO: Actual result:  /api/user/1154/logout
Jun 20, 2020 6:12:56 PM com.danaDeals.base.TestBase checkTimestamp
INFO: timestamp ===> 2020/06/20 18:12
Jun 20, 2020 6:12:56 PM com.danaDeals.base.TestBase checkDevStatus
INFO: ***** Check Developer Status *****
Jun 20, 2020 6:12:56 PM com.danaDeals.base.TestBase checkDevStatus
INFO: Expected result: 041
Jun 20, 2020 6:12:56 PM com.danaDeals.base.TestBase checkDevStatus
INFO: dev status ===> 041
Jun 20, 2020 6:12:56 PM com.danaDeals.base.TestBase checkStatusCode
INFO: ***** Check Status Code *****
Jun 20, 2020 6:12:56 PM com.danaDeals.base.TestBase checkStatusCode
INFO: Expected result: 200
Jun 20, 2020 6:12:56 PM com.danaDeals.base.TestBase checkStatusCode
INFO: Actual result: 200
Jun 20, 2020 6:12:56 PM com.danaDeals.base.TestBase checkResponseTime
INFO: ***** Check Response Time *****
Jun 20, 2020 6:12:56 PM com.danaDeals.base.TestBase checkResponseTime
INFO: Response Time = 2384
Jun 20, 2020 6:12:58 PM com.danaDeals.base.TestBase setIdUser
INFO: idUser  ===> 1155
Jun 20, 2020 6:12:58 PM com.danaDeals.base.TestBase checkRegisData
INFO: ***** Check Register Data Content *****
Jun 20, 2020 6:12:59 PM com.danaDeals.base.TestBase checkRegisData
INFO: Actual name: ZROMPHowal UjhWJBFtU
Jun 20, 2020 6:12:59 PM com.danaDeals.base.TestBase checkRegisData
INFO: Expect name: ZROMPHowal UjhWJBFtU
Jun 20, 2020 6:12:59 PM com.danaDeals.base.TestBase checkRegisData
INFO: Actual email: yzfokxjrkxgoypipiutkvzfjwcsmqlclcbxpzuzbbiisjjvdpx@hjyudqpkftwuusrygkg.qif
Jun 20, 2020 6:12:59 PM com.danaDeals.base.TestBase checkRegisData
INFO: Expect email: yzfokxjrkxgoypipiutkvzfjwcsmqlclcbxpzuzbbiisjjvdpx@hjyudqpkftwuusrygkg.qif
Jun 20, 2020 6:12:59 PM com.danaDeals.base.TestBase checkRegisData
INFO: Actual phone number: +6281337519359
Jun 20, 2020 6:12:59 PM com.danaDeals.base.TestBase checkRegisData
INFO: Expect phone number: +6281337519359081337519359
Jun 20, 2020 6:12:59 PM com.danaDeals.base.TestBase checkRegisData
INFO: Actual id role: 2
Jun 20, 2020 6:12:59 PM com.danaDeals.base.TestBase checkRegisData
INFO: Expect id role: 2
Jun 20, 2020 6:12:59 PM com.danaDeals.base.TestBase checkRegisData
INFO: Actual id user: 1155
Jun 20, 2020 6:12:59 PM com.danaDeals.base.TestBase checkRegisData
INFO: Expect id user: 1155
Jun 20, 2020 6:12:59 PM com.danaDeals.base.TestBase checkRegisData
INFO: Actual balance: 0.0
Jun 20, 2020 6:12:59 PM com.danaDeals.base.TestBase checkRegisData
INFO: Expect balance: 0.0
Jun 20, 2020 6:12:59 PM com.danaDeals.base.TestBase checkRegisData
INFO: Actual role name: User
Jun 20, 2020 6:12:59 PM com.danaDeals.base.TestBase checkRegisData
INFO: Expect role name: User
Jun 20, 2020 6:12:59 PM com.danaDeals.base.TestBase checkBody
INFO: ***** Check Message *****
Jun 20, 2020 6:12:59 PM com.danaDeals.base.TestBase checkBody
INFO: Expected result: Registration is successful.
Jun 20, 2020 6:12:59 PM com.danaDeals.base.TestBase checkBody
INFO: Actual result: Registration is successful.
Jun 20, 2020 6:12:59 PM com.danaDeals.base.TestBase checkPath
INFO: ***** Check Path *****
Jun 20, 2020 6:12:59 PM com.danaDeals.base.TestBase checkPath
INFO: Expected result: /api/auth/register
Jun 20, 2020 6:12:59 PM com.danaDeals.base.TestBase checkPath
INFO: Actual result:  /api/auth/register
Jun 20, 2020 6:12:59 PM com.danaDeals.base.TestBase checkTimestamp
INFO: timestamp ===> 2020/06/20 18:12
Jun 20, 2020 6:12:59 PM com.danaDeals.base.TestBase checkDevStatus
INFO: ***** Check Developer Status *****
Jun 20, 2020 6:12:59 PM com.danaDeals.base.TestBase checkDevStatus
INFO: Expected result: 001
Jun 20, 2020 6:12:59 PM com.danaDeals.base.TestBase checkDevStatus
INFO: dev status ===> 001
Jun 20, 2020 6:12:59 PM com.danaDeals.base.TestBase checkStatusCode
INFO: ***** Check Status Code *****
Jun 20, 2020 6:12:59 PM com.danaDeals.base.TestBase checkStatusCode
INFO: Expected result: 201
Jun 20, 2020 6:12:59 PM com.danaDeals.base.TestBase checkStatusCode
INFO: Actual result: 201
Jun 20, 2020 6:12:59 PM com.danaDeals.base.TestBase checkResponseTime
INFO: ***** Check Response Time *****
Jun 20, 2020 6:12:59 PM com.danaDeals.base.TestBase checkResponseTime
INFO: Response Time = 2427
Jun 20, 2020 6:13:01 PM com.danaDeals.base.TestBase setIdUser
INFO: idUser  ===> 1155
Jun 20, 2020 6:13:01 PM com.danaDeals.base.TestBase setToken
INFO: token  ===>eyJhbGciOiJIUzUxMiJ9.eyJzdWIiOiIzOWU2OGY3NC1mYTBjLTQzYTctYTlmNi03NDczNjFjOTgxZjUxMTU1IiwiZXhwIjoxNTkzMjU2MzgwLCJpYXQiOjE1OTI2NTE1ODB9.JtvBjIQ76vahBI22uJWZ_G72VtISpLg745icl0JCEbm5mRkCjzVMMUzVmUNi4kt6Tp2R4A3t7T-wzjPq2tVFpA
Jun 20, 2020 6:13:01 PM com.danaDeals.base.TestBase checkLoginData
INFO: ***** Check Login Data Content *****
Jun 20, 2020 6:13:01 PM com.danaDeals.base.TestBase checkLoginData
INFO: Actual name: ZROMPHowal UjhWJBFtU
Jun 20, 2020 6:13:01 PM com.danaDeals.base.TestBase checkLoginData
INFO: Expect name: ZROMPHowal UjhWJBFtU
Jun 20, 2020 6:13:01 PM com.danaDeals.base.TestBase checkLoginData
INFO: Actual email: yzfokxjrkxgoypipiutkvzfjwcsmqlclcbxpzuzbbiisjjvdpx@hjyudqpkftwuusrygkg.qif
Jun 20, 2020 6:13:01 PM com.danaDeals.base.TestBase checkLoginData
INFO: Expect email: yzfokxjrkxgoypipiutkvzfjwcsmqlclcbxpzuzbbiisjjvdpx@hjyudqpkftwuusrygkg.qif
Jun 20, 2020 6:13:01 PM com.danaDeals.base.TestBase checkLoginData
INFO: Actual phone number: +6281337519359
Jun 20, 2020 6:13:01 PM com.danaDeals.base.TestBase checkLoginData
INFO: Expect phone number: 081337519359
Jun 20, 2020 6:13:01 PM com.danaDeals.base.TestBase checkLoginData
INFO: Actual id role: 2
Jun 20, 2020 6:13:01 PM com.danaDeals.base.TestBase checkLoginData
INFO: Expect id role: 2
Jun 20, 2020 6:13:01 PM com.danaDeals.base.TestBase checkLoginData
INFO: Actual id user: 1155
Jun 20, 2020 6:13:01 PM com.danaDeals.base.TestBase checkLoginData
INFO: Expect id user: 1155
Jun 20, 2020 6:13:01 PM com.danaDeals.base.TestBase checkLoginData
INFO: Actual balance: 0.0
Jun 20, 2020 6:13:01 PM com.danaDeals.base.TestBase checkLoginData
INFO: Expect balance: 0.0
Jun 20, 2020 6:13:01 PM com.danaDeals.base.TestBase checkLoginData
INFO: Actual role name: User
Jun 20, 2020 6:13:01 PM com.danaDeals.base.TestBase checkLoginData
INFO: Expect role name: User
Jun 20, 2020 6:13:01 PM com.danaDeals.base.TestBase checkBody
INFO: ***** Check Message *****
Jun 20, 2020 6:13:01 PM com.danaDeals.base.TestBase checkBody
INFO: Expected result: You are logged in.
Jun 20, 2020 6:13:01 PM com.danaDeals.base.TestBase checkBody
INFO: Actual result: You are logged in.
Jun 20, 2020 6:13:01 PM com.danaDeals.base.TestBase checkPath
INFO: ***** Check Path *****
Jun 20, 2020 6:13:01 PM com.danaDeals.base.TestBase checkPath
INFO: Expected result: /api/auth/login
Jun 20, 2020 6:13:01 PM com.danaDeals.base.TestBase checkPath
INFO: Actual result:  /api/auth/login
Jun 20, 2020 6:13:01 PM com.danaDeals.base.TestBase checkTimestamp
INFO: timestamp ===> 2020/06/20 18:13
Jun 20, 2020 6:13:01 PM com.danaDeals.base.TestBase checkDevStatus
INFO: ***** Check Developer Status *****
Jun 20, 2020 6:13:01 PM com.danaDeals.base.TestBase checkDevStatus
INFO: Expected result: 010
Jun 20, 2020 6:13:01 PM com.danaDeals.base.TestBase checkDevStatus
INFO: dev status ===> 010
Jun 20, 2020 6:13:01 PM com.danaDeals.base.TestBase checkStatusCode
INFO: ***** Check Status Code *****
Jun 20, 2020 6:13:01 PM com.danaDeals.base.TestBase checkStatusCode
INFO: Expected result: 200
Jun 20, 2020 6:13:01 PM com.danaDeals.base.TestBase checkStatusCode
INFO: Actual result: 200
Jun 20, 2020 6:13:01 PM com.danaDeals.base.TestBase checkResponseTime
INFO: ***** Check Response Time *****
Jun 20, 2020 6:13:01 PM com.danaDeals.base.TestBase checkResponseTime
INFO: Response Time = 2310
Jun 20, 2020 6:13:03 PM com.danaDeals.base.TestBase checkBody
INFO: ***** Check Message *****
Jun 20, 2020 6:13:03 PM com.danaDeals.base.TestBase checkBody
INFO: Expected result: Your TOPUP is successful.
Jun 20, 2020 6:13:03 PM com.danaDeals.base.TestBase checkBody
INFO: Actual result: Your TOPUP is successful.
Jun 20, 2020 6:13:03 PM com.danaDeals.base.TestBase checkPath
INFO: ***** Check Path *****
Jun 20, 2020 6:13:03 PM com.danaDeals.base.TestBase checkPath
INFO: Expected result: /api/user/1155/transaction/topup
Jun 20, 2020 6:13:03 PM com.danaDeals.base.TestBase checkPath
INFO: Actual result:  /api/user/1155/transaction/topup
Jun 20, 2020 6:13:03 PM com.danaDeals.base.TestBase checkTimestamp
INFO: timestamp ===> 2020/06/20 18:13
Jun 20, 2020 6:13:03 PM com.danaDeals.base.TestBase checkDevStatus
INFO: ***** Check Developer Status *****
Jun 20, 2020 6:13:03 PM com.danaDeals.base.TestBase checkDevStatus
INFO: Expected result: 033
Jun 20, 2020 6:13:03 PM com.danaDeals.base.TestBase checkDevStatus
INFO: dev status ===> 033
Jun 20, 2020 6:13:03 PM com.danaDeals.base.TestBase checkStatusCode
INFO: ***** Check Status Code *****
Jun 20, 2020 6:13:03 PM com.danaDeals.base.TestBase checkStatusCode
INFO: Expected result: 201
Jun 20, 2020 6:13:03 PM com.danaDeals.base.TestBase checkStatusCode
INFO: Actual result: 201
Jun 20, 2020 6:13:03 PM com.danaDeals.base.TestBase checkResponseTime
INFO: ***** Check Response Time *****
Jun 20, 2020 6:13:03 PM com.danaDeals.base.TestBase checkResponseTime
INFO: Response Time = 2406
Jun 20, 2020 6:13:06 PM com.danaDeals.base.TestBase setIdTransaction
INFO: idTransaction  ===> 638
Jun 20, 2020 6:13:06 PM com.danaDeals.base.TestBase checkBody
INFO: ***** Check Message *****
Jun 20, 2020 6:13:06 PM com.danaDeals.base.TestBase checkBody
INFO: Expected result: A new transaction has been created!
Jun 20, 2020 6:13:06 PM com.danaDeals.base.TestBase checkBody
INFO: Actual result: A new transaction has been created!
Jun 20, 2020 6:13:06 PM com.danaDeals.base.TestBase checkPath
INFO: ***** Check Path *****
Jun 20, 2020 6:13:06 PM com.danaDeals.base.TestBase checkPath
INFO: Expected result: /api/user/1155/transaction/voucher
Jun 20, 2020 6:13:06 PM com.danaDeals.base.TestBase checkPath
INFO: Actual result:  /api/user/1155/transaction/voucher
Jun 20, 2020 6:13:06 PM com.danaDeals.base.TestBase checkTimestamp
INFO: timestamp ===> 2020/06/20 18:13
Jun 20, 2020 6:13:06 PM com.danaDeals.base.TestBase checkDevStatus
INFO: ***** Check Developer Status *****
Jun 20, 2020 6:13:06 PM com.danaDeals.base.TestBase checkDevStatus
INFO: Expected result: 052
Jun 20, 2020 6:13:06 PM com.danaDeals.base.TestBase checkDevStatus
INFO: dev status ===> 052
Jun 20, 2020 6:13:06 PM com.danaDeals.base.TestBase checkStatusCode
INFO: ***** Check Status Code *****
Jun 20, 2020 6:13:06 PM com.danaDeals.base.TestBase checkStatusCode
INFO: Expected result: 201
Jun 20, 2020 6:13:06 PM com.danaDeals.base.TestBase checkStatusCode
INFO: Actual result: 201
Jun 20, 2020 6:13:06 PM com.danaDeals.base.TestBase checkResponseTime
INFO: ***** Check Response Time *****
Jun 20, 2020 6:13:06 PM com.danaDeals.base.TestBase checkResponseTime
INFO: Response Time = 2545
Jun 20, 2020 6:13:08 PM com.danaDeals.base.TestBase checkBody
INFO: ***** Check Message *****
Jun 20, 2020 6:13:08 PM com.danaDeals.base.TestBase checkBody
INFO: Expected result: Your payment is successfull.
Jun 20, 2020 6:13:08 PM com.danaDeals.base.TestBase checkBody
INFO: Actual result: Your payment is successfull.
Jun 20, 2020 6:13:08 PM com.danaDeals.base.TestBase checkPath
INFO: ***** Check Path *****
Jun 20, 2020 6:13:08 PM com.danaDeals.base.TestBase checkPath
INFO: Expected result: /api/user/1155/transaction/voucher
Jun 20, 2020 6:13:08 PM com.danaDeals.base.TestBase checkPath
INFO: Actual result:  /api/user/1155/transaction/voucher
Jun 20, 2020 6:13:08 PM com.danaDeals.base.TestBase checkTimestamp
INFO: timestamp ===> 2020/06/20 18:13
Jun 20, 2020 6:13:08 PM com.danaDeals.base.TestBase checkDevStatus
INFO: ***** Check Developer Status *****
Jun 20, 2020 6:13:08 PM com.danaDeals.base.TestBase checkDevStatus
INFO: Expected result: 028
Jun 20, 2020 6:13:08 PM com.danaDeals.base.TestBase checkDevStatus
INFO: dev status ===> 028
Jun 20, 2020 6:13:08 PM com.danaDeals.base.TestBase checkStatusCode
INFO: ***** Check Status Code *****
Jun 20, 2020 6:13:08 PM com.danaDeals.base.TestBase checkStatusCode
INFO: Expected result: 200
Jun 20, 2020 6:13:08 PM com.danaDeals.base.TestBase checkStatusCode
INFO: Actual result: 200
Jun 20, 2020 6:13:08 PM com.danaDeals.base.TestBase checkResponseTime
INFO: ***** Check Response Time *****
Jun 20, 2020 6:13:08 PM com.danaDeals.base.TestBase checkResponseTime
INFO: Response Time = 2524
Jun 20, 2020 6:13:11 PM com.danaDeals.base.TestBase checkDataEquals
INFO: ***** Check Data Content *****
Jun 20, 2020 6:13:11 PM com.danaDeals.base.TestBase checkDataEquals
INFO: Expected result: Refund
Jun 20, 2020 6:13:11 PM com.danaDeals.base.TestBase checkDataEquals
INFO: Actual result: Refund
Jun 20, 2020 6:13:11 PM com.danaDeals.base.TestBase checkBody
INFO: ***** Check Message *****
Jun 20, 2020 6:13:11 PM com.danaDeals.base.TestBase checkBody
INFO: Expected result: Transaction history are successfully collected.
Jun 20, 2020 6:13:11 PM com.danaDeals.base.TestBase checkBody
INFO: Actual result: Transaction history are successfully collected.
Jun 20, 2020 6:13:11 PM com.danaDeals.base.TestBase checkPath
INFO: ***** Check Path *****
Jun 20, 2020 6:13:11 PM com.danaDeals.base.TestBase checkPath
INFO: Expected result: /api/user/1155/transaction/639
Jun 20, 2020 6:13:11 PM com.danaDeals.base.TestBase checkPath
INFO: Actual result:  /api/user/1155/transaction/639
Jun 20, 2020 6:13:11 PM com.danaDeals.base.TestBase checkTimestamp
INFO: timestamp ===> 2020/06/20 18:13
Jun 20, 2020 6:13:11 PM com.danaDeals.base.TestBase checkDevStatus
INFO: ***** Check Developer Status *****
Jun 20, 2020 6:13:11 PM com.danaDeals.base.TestBase checkDevStatus
INFO: Expected result: 039
Jun 20, 2020 6:13:11 PM com.danaDeals.base.TestBase checkDevStatus
INFO: dev status ===> 039
Jun 20, 2020 6:13:11 PM com.danaDeals.base.TestBase checkStatusCode
INFO: ***** Check Status Code *****
Jun 20, 2020 6:13:11 PM com.danaDeals.base.TestBase checkStatusCode
INFO: Expected result: 200
Jun 20, 2020 6:13:11 PM com.danaDeals.base.TestBase checkStatusCode
INFO: Actual result: 200
Jun 20, 2020 6:13:11 PM com.danaDeals.base.TestBase checkResponseTime
INFO: ***** Check Response Time *****
Jun 20, 2020 6:13:11 PM com.danaDeals.base.TestBase checkResponseTime
INFO: Response Time = 2332
Jun 20, 2020 6:13:13 PM com.danaDeals.base.TestBase checkBody
INFO: ***** Check Message *****
Jun 20, 2020 6:13:13 PM com.danaDeals.base.TestBase checkBody
INFO: Expected result: You are logged out.
Jun 20, 2020 6:13:13 PM com.danaDeals.base.TestBase checkBody
INFO: Actual result: You are logged out.
Jun 20, 2020 6:13:13 PM com.danaDeals.base.TestBase checkPath
INFO: ***** Check Path *****
Jun 20, 2020 6:13:13 PM com.danaDeals.base.TestBase checkPath
INFO: Expected result: /api/user/1155/logout
Jun 20, 2020 6:13:13 PM com.danaDeals.base.TestBase checkPath
INFO: Actual result:  /api/user/1155/logout
Jun 20, 2020 6:13:13 PM com.danaDeals.base.TestBase checkTimestamp
INFO: timestamp ===> 2020/06/20 18:13
Jun 20, 2020 6:13:13 PM com.danaDeals.base.TestBase checkDevStatus
INFO: ***** Check Developer Status *****
Jun 20, 2020 6:13:13 PM com.danaDeals.base.TestBase checkDevStatus
INFO: Expected result: 041
Jun 20, 2020 6:13:13 PM com.danaDeals.base.TestBase checkDevStatus
INFO: dev status ===> 041
Jun 20, 2020 6:13:13 PM com.danaDeals.base.TestBase checkStatusCode
INFO: ***** Check Status Code *****
Jun 20, 2020 6:13:13 PM com.danaDeals.base.TestBase checkStatusCode
INFO: Expected result: 200
Jun 20, 2020 6:13:13 PM com.danaDeals.base.TestBase checkStatusCode
INFO: Actual result: 200
Jun 20, 2020 6:13:13 PM com.danaDeals.base.TestBase checkResponseTime
INFO: ***** Check Response Time *****
Jun 20, 2020 6:13:13 PM com.danaDeals.base.TestBase checkResponseTime
INFO: Response Time = 2322
Jun 20, 2020 6:13:16 PM com.danaDeals.base.TestBase setIdUser
INFO: idUser  ===> 1156
Jun 20, 2020 6:13:16 PM com.danaDeals.base.TestBase checkRegisData
INFO: ***** Check Register Data Content *****
Jun 20, 2020 6:13:16 PM com.danaDeals.base.TestBase checkRegisData
INFO: Actual name: tOnTiMzKRy lVIVewWmB
Jun 20, 2020 6:13:16 PM com.danaDeals.base.TestBase checkRegisData
INFO: Expect name: tOnTiMzKRy lVIVewWmB
Jun 20, 2020 6:13:16 PM com.danaDeals.base.TestBase checkRegisData
INFO: Actual email: vordcktvulkrrbnsmkgiikcsbnyedhrljqdbjarytypaffpysq@nzmchjogldqjbwpomnq.inv
Jun 20, 2020 6:13:16 PM com.danaDeals.base.TestBase checkRegisData
INFO: Expect email: vordcktvulkrrbnsmkgiikcsbnyedhrljqdbjarytypaffpysq@nzmchjogldqjbwpomnq.inv
Jun 20, 2020 6:13:16 PM com.danaDeals.base.TestBase checkRegisData
INFO: Actual phone number: +6281437753722
Jun 20, 2020 6:13:16 PM com.danaDeals.base.TestBase checkRegisData
INFO: Expect phone number: +6281437753722081437753722
Jun 20, 2020 6:13:16 PM com.danaDeals.base.TestBase checkRegisData
INFO: Actual id role: 2
Jun 20, 2020 6:13:16 PM com.danaDeals.base.TestBase checkRegisData
INFO: Expect id role: 2
Jun 20, 2020 6:13:16 PM com.danaDeals.base.TestBase checkRegisData
INFO: Actual id user: 1156
Jun 20, 2020 6:13:16 PM com.danaDeals.base.TestBase checkRegisData
INFO: Expect id user: 1156
Jun 20, 2020 6:13:16 PM com.danaDeals.base.TestBase checkRegisData
INFO: Actual balance: 0.0
Jun 20, 2020 6:13:16 PM com.danaDeals.base.TestBase checkRegisData
INFO: Expect balance: 0.0
Jun 20, 2020 6:13:16 PM com.danaDeals.base.TestBase checkRegisData
INFO: Actual role name: User
Jun 20, 2020 6:13:16 PM com.danaDeals.base.TestBase checkRegisData
INFO: Expect role name: User
Jun 20, 2020 6:13:16 PM com.danaDeals.base.TestBase checkBody
INFO: ***** Check Message *****
Jun 20, 2020 6:13:16 PM com.danaDeals.base.TestBase checkBody
INFO: Expected result: Registration is successful.
Jun 20, 2020 6:13:16 PM com.danaDeals.base.TestBase checkBody
INFO: Actual result: Registration is successful.
Jun 20, 2020 6:13:16 PM com.danaDeals.base.TestBase checkPath
INFO: ***** Check Path *****
Jun 20, 2020 6:13:16 PM com.danaDeals.base.TestBase checkPath
INFO: Expected result: /api/auth/register
Jun 20, 2020 6:13:16 PM com.danaDeals.base.TestBase checkPath
INFO: Actual result:  /api/auth/register
Jun 20, 2020 6:13:16 PM com.danaDeals.base.TestBase checkTimestamp
INFO: timestamp ===> 2020/06/20 18:13
Jun 20, 2020 6:13:16 PM com.danaDeals.base.TestBase checkDevStatus
INFO: ***** Check Developer Status *****
Jun 20, 2020 6:13:16 PM com.danaDeals.base.TestBase checkDevStatus
INFO: Expected result: 001
Jun 20, 2020 6:13:16 PM com.danaDeals.base.TestBase checkDevStatus
INFO: dev status ===> 001
Jun 20, 2020 6:13:16 PM com.danaDeals.base.TestBase checkStatusCode
INFO: ***** Check Status Code *****
Jun 20, 2020 6:13:16 PM com.danaDeals.base.TestBase checkStatusCode
INFO: Expected result: 201
Jun 20, 2020 6:13:16 PM com.danaDeals.base.TestBase checkStatusCode
INFO: Actual result: 201
Jun 20, 2020 6:13:16 PM com.danaDeals.base.TestBase checkResponseTime
INFO: ***** Check Response Time *****
Jun 20, 2020 6:13:16 PM com.danaDeals.base.TestBase checkResponseTime
INFO: Response Time = 2517
Jun 20, 2020 6:13:18 PM com.danaDeals.base.TestBase setIdUser
INFO: idUser  ===> 1156
Jun 20, 2020 6:13:18 PM com.danaDeals.base.TestBase setToken
INFO: token  ===>eyJhbGciOiJIUzUxMiJ9.eyJzdWIiOiJlYTBjYmVlOS0wODQ0LTQzNzItOTdiOS1hYWNhMzI2NGQwOGExMTU2IiwiZXhwIjoxNTkzMjU2Mzk4LCJpYXQiOjE1OTI2NTE1OTh9.wtBWnaZTGtx-X2M4M331lXjSEP_0gpdFzeDTtYPiVs5W5E4aT8qNFpsIacw31e8HNKF4GW4RLTj3kzgi26hs4g
Jun 20, 2020 6:13:18 PM com.danaDeals.base.TestBase checkLoginData
INFO: ***** Check Login Data Content *****
Jun 20, 2020 6:13:18 PM com.danaDeals.base.TestBase checkLoginData
INFO: Actual name: tOnTiMzKRy lVIVewWmB
Jun 20, 2020 6:13:18 PM com.danaDeals.base.TestBase checkLoginData
INFO: Expect name: tOnTiMzKRy lVIVewWmB
Jun 20, 2020 6:13:18 PM com.danaDeals.base.TestBase checkLoginData
INFO: Actual email: vordcktvulkrrbnsmkgiikcsbnyedhrljqdbjarytypaffpysq@nzmchjogldqjbwpomnq.inv
Jun 20, 2020 6:13:18 PM com.danaDeals.base.TestBase checkLoginData
INFO: Expect email: vordcktvulkrrbnsmkgiikcsbnyedhrljqdbjarytypaffpysq@nzmchjogldqjbwpomnq.inv
Jun 20, 2020 6:13:18 PM com.danaDeals.base.TestBase checkLoginData
INFO: Actual phone number: +6281437753722
Jun 20, 2020 6:13:18 PM com.danaDeals.base.TestBase checkLoginData
INFO: Expect phone number: 081437753722
Jun 20, 2020 6:13:18 PM com.danaDeals.base.TestBase checkLoginData
INFO: Actual id role: 2
Jun 20, 2020 6:13:18 PM com.danaDeals.base.TestBase checkLoginData
INFO: Expect id role: 2
Jun 20, 2020 6:13:18 PM com.danaDeals.base.TestBase checkLoginData
INFO: Actual id user: 1156
Jun 20, 2020 6:13:18 PM com.danaDeals.base.TestBase checkLoginData
INFO: Expect id user: 1156
Jun 20, 2020 6:13:18 PM com.danaDeals.base.TestBase checkLoginData
INFO: Actual balance: 0.0
Jun 20, 2020 6:13:18 PM com.danaDeals.base.TestBase checkLoginData
INFO: Expect balance: 0.0
Jun 20, 2020 6:13:18 PM com.danaDeals.base.TestBase checkLoginData
INFO: Actual role name: User
Jun 20, 2020 6:13:18 PM com.danaDeals.base.TestBase checkLoginData
INFO: Expect role name: User
Jun 20, 2020 6:13:18 PM com.danaDeals.base.TestBase checkBody
INFO: ***** Check Message *****
Jun 20, 2020 6:13:18 PM com.danaDeals.base.TestBase checkBody
INFO: Expected result: You are logged in.
Jun 20, 2020 6:13:18 PM com.danaDeals.base.TestBase checkBody
INFO: Actual result: You are logged in.
Jun 20, 2020 6:13:18 PM com.danaDeals.base.TestBase checkPath
INFO: ***** Check Path *****
Jun 20, 2020 6:13:18 PM com.danaDeals.base.TestBase checkPath
INFO: Expected result: /api/auth/login
Jun 20, 2020 6:13:18 PM com.danaDeals.base.TestBase checkPath
INFO: Actual result:  /api/auth/login
Jun 20, 2020 6:13:18 PM com.danaDeals.base.TestBase checkTimestamp
INFO: timestamp ===> 2020/06/20 18:13
Jun 20, 2020 6:13:18 PM com.danaDeals.base.TestBase checkDevStatus
INFO: ***** Check Developer Status *****
Jun 20, 2020 6:13:18 PM com.danaDeals.base.TestBase checkDevStatus
INFO: Expected result: 010
Jun 20, 2020 6:13:18 PM com.danaDeals.base.TestBase checkDevStatus
INFO: dev status ===> 010
Jun 20, 2020 6:13:18 PM com.danaDeals.base.TestBase checkStatusCode
INFO: ***** Check Status Code *****
Jun 20, 2020 6:13:18 PM com.danaDeals.base.TestBase checkStatusCode
INFO: Expected result: 200
Jun 20, 2020 6:13:18 PM com.danaDeals.base.TestBase checkStatusCode
INFO: Actual result: 200
Jun 20, 2020 6:13:18 PM com.danaDeals.base.TestBase checkResponseTime
INFO: ***** Check Response Time *****
Jun 20, 2020 6:13:18 PM com.danaDeals.base.TestBase checkResponseTime
INFO: Response Time = 2515
Jun 20, 2020 6:13:21 PM com.danaDeals.base.TestBase checkBody
INFO: ***** Check Message *****
Jun 20, 2020 6:13:21 PM com.danaDeals.base.TestBase checkBody
INFO: Expected result: Your TOPUP is successful.
Jun 20, 2020 6:13:21 PM com.danaDeals.base.TestBase checkBody
INFO: Actual result: Your TOPUP is successful.
Jun 20, 2020 6:13:21 PM com.danaDeals.base.TestBase checkPath
INFO: ***** Check Path *****
Jun 20, 2020 6:13:21 PM com.danaDeals.base.TestBase checkPath
INFO: Expected result: /api/user/1156/transaction/topup
Jun 20, 2020 6:13:21 PM com.danaDeals.base.TestBase checkPath
INFO: Actual result:  /api/user/1156/transaction/topup
Jun 20, 2020 6:13:21 PM com.danaDeals.base.TestBase checkTimestamp
INFO: timestamp ===> 2020/06/20 18:13
Jun 20, 2020 6:13:21 PM com.danaDeals.base.TestBase checkDevStatus
INFO: ***** Check Developer Status *****
Jun 20, 2020 6:13:21 PM com.danaDeals.base.TestBase checkDevStatus
INFO: Expected result: 033
Jun 20, 2020 6:13:21 PM com.danaDeals.base.TestBase checkDevStatus
INFO: dev status ===> 033
Jun 20, 2020 6:13:21 PM com.danaDeals.base.TestBase checkStatusCode
INFO: ***** Check Status Code *****
Jun 20, 2020 6:13:21 PM com.danaDeals.base.TestBase checkStatusCode
INFO: Expected result: 201
Jun 20, 2020 6:13:21 PM com.danaDeals.base.TestBase checkStatusCode
INFO: Actual result: 201
Jun 20, 2020 6:13:21 PM com.danaDeals.base.TestBase checkResponseTime
INFO: ***** Check Response Time *****
Jun 20, 2020 6:13:21 PM com.danaDeals.base.TestBase checkResponseTime
INFO: Response Time = 2510
Jun 20, 2020 6:13:23 PM com.danaDeals.base.TestBase setIdTransaction
INFO: idTransaction  ===> 641
Jun 20, 2020 6:13:23 PM com.danaDeals.base.TestBase checkBody
INFO: ***** Check Message *****
Jun 20, 2020 6:13:23 PM com.danaDeals.base.TestBase checkBody
INFO: Expected result: A new transaction has been created!
Jun 20, 2020 6:13:23 PM com.danaDeals.base.TestBase checkBody
INFO: Actual result: A new transaction has been created!
Jun 20, 2020 6:13:23 PM com.danaDeals.base.TestBase checkPath
INFO: ***** Check Path *****
Jun 20, 2020 6:13:23 PM com.danaDeals.base.TestBase checkPath
INFO: Expected result: /api/user/1156/transaction/voucher
Jun 20, 2020 6:13:23 PM com.danaDeals.base.TestBase checkPath
INFO: Actual result:  /api/user/1156/transaction/voucher
Jun 20, 2020 6:13:23 PM com.danaDeals.base.TestBase checkTimestamp
INFO: timestamp ===> 2020/06/20 18:13
Jun 20, 2020 6:13:23 PM com.danaDeals.base.TestBase checkDevStatus
INFO: ***** Check Developer Status *****
Jun 20, 2020 6:13:23 PM com.danaDeals.base.TestBase checkDevStatus
INFO: Expected result: 052
Jun 20, 2020 6:13:23 PM com.danaDeals.base.TestBase checkDevStatus
INFO: dev status ===> 052
Jun 20, 2020 6:13:23 PM com.danaDeals.base.TestBase checkStatusCode
INFO: ***** Check Status Code *****
Jun 20, 2020 6:13:23 PM com.danaDeals.base.TestBase checkStatusCode
INFO: Expected result: 201
Jun 20, 2020 6:13:23 PM com.danaDeals.base.TestBase checkStatusCode
INFO: Actual result: 201
Jun 20, 2020 6:13:23 PM com.danaDeals.base.TestBase checkResponseTime
INFO: ***** Check Response Time *****
Jun 20, 2020 6:13:23 PM com.danaDeals.base.TestBase checkResponseTime
INFO: Response Time = 2444
Jun 20, 2020 6:13:26 PM com.danaDeals.base.TestBase checkBody
INFO: ***** Check Message *****
Jun 20, 2020 6:13:26 PM com.danaDeals.base.TestBase checkBody
INFO: Expected result: Your payment is successfull.
Jun 20, 2020 6:13:26 PM com.danaDeals.base.TestBase checkBody
INFO: Actual result: Your payment is successfull.
Jun 20, 2020 6:13:26 PM com.danaDeals.base.TestBase checkPath
INFO: ***** Check Path *****
Jun 20, 2020 6:13:26 PM com.danaDeals.base.TestBase checkPath
INFO: Expected result: /api/user/1156/transaction/voucher
Jun 20, 2020 6:13:26 PM com.danaDeals.base.TestBase checkPath
INFO: Actual result:  /api/user/1156/transaction/voucher
Jun 20, 2020 6:13:26 PM com.danaDeals.base.TestBase checkTimestamp
INFO: timestamp ===> 2020/06/20 18:13
Jun 20, 2020 6:13:26 PM com.danaDeals.base.TestBase checkDevStatus
INFO: ***** Check Developer Status *****
Jun 20, 2020 6:13:26 PM com.danaDeals.base.TestBase checkDevStatus
INFO: Expected result: 028
Jun 20, 2020 6:13:26 PM com.danaDeals.base.TestBase checkDevStatus
INFO: dev status ===> 028
Jun 20, 2020 6:13:26 PM com.danaDeals.base.TestBase checkStatusCode
INFO: ***** Check Status Code *****
Jun 20, 2020 6:13:26 PM com.danaDeals.base.TestBase checkStatusCode
INFO: Expected result: 200
Jun 20, 2020 6:13:26 PM com.danaDeals.base.TestBase checkStatusCode
INFO: Actual result: 200
Jun 20, 2020 6:13:26 PM com.danaDeals.base.TestBase checkResponseTime
INFO: ***** Check Response Time *****
Jun 20, 2020 6:13:26 PM com.danaDeals.base.TestBase checkResponseTime
INFO: Response Time = 2723
Jun 20, 2020 6:13:28 PM com.danaDeals.base.TestBase checkDataEquals
INFO: ***** Check Data Content *****
Jun 20, 2020 6:13:28 PM com.danaDeals.base.TestBase checkDataEquals
INFO: Expected result: Failed
Jun 20, 2020 6:13:28 PM com.danaDeals.base.TestBase checkDataEquals
INFO: Actual result: Failed
Jun 20, 2020 6:13:28 PM com.danaDeals.base.TestBase checkBody
INFO: ***** Check Message *****
Jun 20, 2020 6:13:28 PM com.danaDeals.base.TestBase checkBody
INFO: Expected result: Transaction history are successfully collected.
Jun 20, 2020 6:13:28 PM com.danaDeals.base.TestBase checkBody
INFO: Actual result: Transaction history are successfully collected.
Jun 20, 2020 6:13:28 PM com.danaDeals.base.TestBase checkPath
INFO: ***** Check Path *****
Jun 20, 2020 6:13:28 PM com.danaDeals.base.TestBase checkPath
INFO: Expected result: /api/user/1156/transaction/641
Jun 20, 2020 6:13:28 PM com.danaDeals.base.TestBase checkPath
INFO: Actual result:  /api/user/1156/transaction/641
Jun 20, 2020 6:13:28 PM com.danaDeals.base.TestBase checkTimestamp
INFO: timestamp ===> 2020/06/20 18:13
Jun 20, 2020 6:13:28 PM com.danaDeals.base.TestBase checkDevStatus
INFO: ***** Check Developer Status *****
Jun 20, 2020 6:13:28 PM com.danaDeals.base.TestBase checkDevStatus
INFO: Expected result: 039
Jun 20, 2020 6:13:28 PM com.danaDeals.base.TestBase checkDevStatus
INFO: dev status ===> 039
Jun 20, 2020 6:13:28 PM com.danaDeals.base.TestBase checkStatusCode
INFO: ***** Check Status Code *****
Jun 20, 2020 6:13:28 PM com.danaDeals.base.TestBase checkStatusCode
INFO: Expected result: 200
Jun 20, 2020 6:13:28 PM com.danaDeals.base.TestBase checkStatusCode
INFO: Actual result: 200
Jun 20, 2020 6:13:28 PM com.danaDeals.base.TestBase checkResponseTime
INFO: ***** Check Response Time *****
Jun 20, 2020 6:13:28 PM com.danaDeals.base.TestBase checkResponseTime
INFO: Response Time = 2267
Jun 20, 2020 6:13:31 PM com.danaDeals.base.TestBase checkBody
INFO: ***** Check Message *****
Jun 20, 2020 6:13:31 PM com.danaDeals.base.TestBase checkBody
INFO: Expected result: You are logged out.
Jun 20, 2020 6:13:31 PM com.danaDeals.base.TestBase checkBody
INFO: Actual result: You are logged out.
Jun 20, 2020 6:13:31 PM com.danaDeals.base.TestBase checkPath
INFO: ***** Check Path *****
Jun 20, 2020 6:13:31 PM com.danaDeals.base.TestBase checkPath
INFO: Expected result: /api/user/1156/logout
Jun 20, 2020 6:13:31 PM com.danaDeals.base.TestBase checkPath
INFO: Actual result:  /api/user/1156/logout
Jun 20, 2020 6:13:31 PM com.danaDeals.base.TestBase checkTimestamp
INFO: timestamp ===> 2020/06/20 18:13
Jun 20, 2020 6:13:31 PM com.danaDeals.base.TestBase checkDevStatus
INFO: ***** Check Developer Status *****
Jun 20, 2020 6:13:31 PM com.danaDeals.base.TestBase checkDevStatus
INFO: Expected result: 041
Jun 20, 2020 6:13:31 PM com.danaDeals.base.TestBase checkDevStatus
INFO: dev status ===> 041
Jun 20, 2020 6:13:31 PM com.danaDeals.base.TestBase checkStatusCode
INFO: ***** Check Status Code *****
Jun 20, 2020 6:13:31 PM com.danaDeals.base.TestBase checkStatusCode
INFO: Expected result: 200
Jun 20, 2020 6:13:31 PM com.danaDeals.base.TestBase checkStatusCode
INFO: Actual result: 200
Jun 20, 2020 6:13:31 PM com.danaDeals.base.TestBase checkResponseTime
INFO: ***** Check Response Time *****
Jun 20, 2020 6:13:31 PM com.danaDeals.base.TestBase checkResponseTime
INFO: Response Time = 2494
